%!PS-Adobe-3.0 EPSF-3.0
%%Creator: EpsGraphics 1.0.0 by Thomas Abeel, http://www.sourceforge.net/epsgraphics/
%%Title: GeoGebra, http://www.geogebra.org/
%%CreationDate: Tue Jan 14 10:49:19 CET 2014
%%BoundingBox: 0 0 296 231
%%DocumentData: Clean7Bit
%%LanguageLevel: 2
%%DocumentProcessColors: Black
%%ColorUsage: Color
%%Origin: 0 0
%%Pages: 1
%%Page: 1 1
%%EndComments

gsave
0.0 231.0 translate
0.0 0.0 0.0 setrgbcolor
0.0 0.0 0.0 setrgbcolor
gsave
newpath
0.0 -0.0 moveto
296.28977943694883 -0.0 lineto
296.28977943694883 -231.37979795076183 lineto
0.0 -231.37979795076183 lineto
0.0 -0.0 lineto
closepath
clip
newpath
1.0 1.0 1.0 setrgbcolor
newpath
0.0 -0.0 moveto
296.28977943694883 -0.0 lineto
296.28977943694883 -231.37979795076183 lineto
0.0 -231.37979795076183 lineto
0.0 -0.0 lineto
closepath
fill
newpath
0.0 0.0 0.0 setrgbcolor
1.0 setlinewidth
10.0 setmiterlimit
0 setlinejoin
0 setlinecap
[ ] 0 setdash
newpath
49.75084823490954 -0.883128999812068 moveto
49.75084823490954 -231.37979795076183 lineto
stroke
newpath
1.0 setlinewidth
10.0 setmiterlimit
0 setlinejoin
0 setlinecap
[ ] 0 setdash
newpath
49.97163048486256 -0.441564499906034 moveto
48.42615473519144 -1.766257999624136 lineto
stroke
newpath
1.0 setlinewidth
10.0 setmiterlimit
0 setlinejoin
0 setlinecap
[ ] 0 setdash
newpath
49.53006598495653 -0.441564499906034 moveto
51.07554173462764 -1.766257999624136 lineto
stroke
newpath
1.0 setlinewidth
10.0 setmiterlimit
0 setlinejoin
0 setlinecap
[ ] 0 setdash
newpath
0.0 -173.99861809765062 moveto
295.40665043713676 -173.99861809765062 lineto
stroke
newpath
1.0 setlinewidth
10.0 setmiterlimit
0 setlinejoin
0 setlinecap
[ ] 0 setdash
newpath
295.84821493704277 -174.21940034760362 moveto
294.5235214373247 -172.6739245979325 lineto
stroke
newpath
1.0 setlinewidth
10.0 setmiterlimit
0 setlinejoin
0 setlinecap
[ ] 0 setdash
newpath
295.84821493704277 -173.7778358476976 moveto
294.5235214373247 -175.3233115973687 lineto
stroke
newpath
1.0 0.0 0.0 setrgbcolor
1.0 setlinewidth
10.0 setmiterlimit
1 setlinejoin
1 setlinecap
[ ] 0 setdash
newpath
49.75084905047858 -88.95925133734673 moveto
51.67693297024235 -92.7677923132132 lineto
53.603020258875894 -96.48909303723667 lineto
55.52910417863966 -100.123140033938 lineto
57.45519146727322 -103.66994004105678 lineto
59.381275387036986 -107.1294863208534 lineto
61.307359306800755 -110.50178561106748 lineto
63.233443226564525 -113.78683791169898 lineto
65.15953388406786 -116.98463648500835 lineto
67.08561780383162 -120.09519480647471 lineto
69.0117017235954 -123.11849940061894 lineto
70.93778564335916 -126.05455026744104 lineto
72.8638763008625 -128.90336088242015 lineto
74.78996022062627 -131.6649177700771 lineto
76.71604414039004 -134.33922093041193 lineto
78.64212806015381 -136.92628383890374 lineto
80.56821197991758 -139.42609302007344 lineto
82.4943026374209 -141.838648473921 lineto
84.42038655718467 -144.16396367592557 lineto
86.34647047694844 -146.40202515060798 lineto
88.27255439671222 -148.5528463734474 lineto
90.19863831647599 -150.61640039348558 lineto
92.12472897397932 -152.59271416168073 lineto
94.05081289374309 -154.4817876780329 lineto
95.97689681350685 -156.28360746706292 lineto
97.90298073327062 -157.9981735287708 lineto
99.82907139077396 -159.62548586315657 lineto
101.75515531053773 -161.1655579456993 lineto
103.6812392303015 -162.61837630091995 lineto
105.60732315006527 -163.98394092881844 lineto
107.53340706982904 -165.26226530487392 lineto
109.45949772733236 -166.45333595360725 lineto
111.38558164709615 -167.55716635049762 lineto
113.31166556685992 -168.57374302006582 lineto
115.23775622436324 -169.50306596231192 lineto
117.16383340638745 -170.34514865271498 lineto
119.08992406389078 -171.0999641403168 lineto
121.01601472139411 -171.76755285155477 lineto
122.94209190341832 -172.34787435999144 lineto
124.86818256092165 -172.84095561658512 lineto
126.79425974294585 -173.24678314585668 lineto
128.72035040044918 -173.5653704232852 lineto
130.64644105795253 -173.79670397339163 lineto
132.57251823997672 -173.9407837961759 lineto
134.49860889748007 -173.99762336711717 lineto
136.42468607950426 -173.9672092107363 lineto
138.3507767370076 -173.84954132703334 lineto
140.27686739451093 -173.6446197160082 lineto
142.20294457653515 -173.3524578531401 lineto
144.12903523403847 -172.97305573842897 lineto
146.05511241606268 -172.50638642091658 lineto
147.981203073566 -171.9524768515612 lineto
149.90729373106933 -171.31132703036278 lineto
151.83337091309355 -170.58291000636314 lineto
153.75946157059687 -169.76725273052045 lineto
155.68553875262108 -168.8643552028348 lineto
157.6116294101244 -167.874203947827 lineto
159.53772006762776 -166.79679896549706 lineto
161.46379724965198 -165.632140255845 lineto
163.3898879071553 -164.38024129434993 lineto
165.31597856465862 -163.04108860553274 lineto
167.24205574668284 -161.61468218939342 lineto
169.16814640418616 -160.10103552141106 lineto
171.09422358621038 -158.5001351261066 lineto
173.0203142437137 -156.81199447895915 lineto
174.94640490121702 -155.0365866290104 lineto
176.87248208324124 -153.17393852721867 lineto
178.79857274074456 -151.22405017358395 lineto
180.72464992276878 -149.18690809262705 lineto
182.6507405802721 -147.06251228434806 lineto
184.57683123777545 -144.85086274874692 lineto
186.50290841979967 -142.5519729613028 lineto
188.428999077303 -140.16582944653652 lineto
190.3550762593272 -137.69244567992723 lineto
192.28116691683053 -135.13180818599582 lineto
194.20725757433385 -132.4839169647423 lineto
196.13333475635807 -129.74878549164575 lineto
198.0594254138614 -126.92638681574795 lineto
199.9855160713647 -124.01676136348625 lineto
201.91159325338893 -121.01986870842332 lineto
203.83768391089225 -117.93573580151738 lineto
205.76376109291647 -114.7643491672893 lineto
207.6898517504198 -111.50572228121821 lineto
209.61594240792314 -108.159841667825 lineto
211.54201958994736 -104.72671406484922 lineto
213.46811024745068 -101.20633273455131 lineto
215.3941874294749 -97.59870441467083 lineto
217.32027808697822 -93.90382236746821 lineto
219.24636874448154 -90.1217000684226 lineto
221.17244592650576 -86.25232404205485 lineto
223.09853658400908 -82.29569428836497 lineto
225.0246137660333 -78.25182428283208 lineto
226.95070442353662 -74.12070054997706 lineto
228.87678160556084 -69.90232982753948 lineto
230.8028857385433 -65.59670537777976 lineto
232.72896292056748 -61.20383393843747 lineto
233.6920015115796 -58.97467975545542 lineto
234.6550401025917 -56.723715509512616 lineto
235.61807869360382 -54.4509344628695 lineto
236.58114423557416 -52.15634672213541 lineto
237.54418282658625 -49.83994218070101 lineto
238.50722141759837 -47.50172757630585 lineto
239.47026000861047 -45.14169954008017 lineto
240.4332985996226 -42.75986144089374 lineto
241.39633719063468 -40.35620654100698 lineto
242.35937578164678 -37.93074494702926 lineto
243.32244132361714 -35.483466552351224 lineto
244.28547991462924 -33.01437809471244 lineto
245.24851850564136 -30.523476205243117 lineto
246.21155709665345 -28.010764252813047 lineto
247.17459568766554 -25.476238868552443 lineto
248.13763427867767 -22.919900052461305 lineto
249.100699820648 -20.341749488974525 lineto
250.0637384116601 -17.741787178092103 lineto
251.02677700267222 -15.120013119814042 lineto
251.9898155936843 -12.476425629705446 lineto
252.95285418469643 -9.811026392201207 lineto
253.91589277570853 -7.123814565083881 lineto
254.87893136672062 -4.41479056946219 lineto
255.841996908691 -1.6839543000589545 lineto
256.8050354997031 1.068694243125827 lineto
257.7680740907152 3.8431548495377927 lineto
stroke
newpath
1.0 0.0 0.0 setrgbcolor
1.0 setlinewidth
10.0 setmiterlimit
1 setlinejoin
1 setlinecap
[ ] 0 setdash
newpath
56.59873717838534 -100.28602488783858 moveto
56.65824489419299 -99.84359795726867 lineto
56.953196190029836 -99.98331172898087 57.24383531923342 -100.05316860859126 57.53016229537463 -100.05316860859126 curveto
58.10454113463585 -100.05316860859126 58.391730528589726 -99.74873057516903 58.391730528589726 -99.13985453554344 curveto
58.391730528589726 -98.69742760497351 lineto
58.203720638260975 -99.09069599942264 57.89497045979553 -99.28733017906673 57.465479995583706 -99.28733017906673 curveto
57.12913202664696 -99.28733017906673 56.86177852791265 -99.16486502114617 56.663419478176266 -98.91993471625429 curveto
56.46506041957254 -98.67500440041317 56.36588089913802 -98.34469345725273 56.36588089913802 -97.92900188345735 curveto
56.36588089913802 -97.50123626142496 56.47885931947318 -97.1528142819567 56.704816150042454 -96.88373591883604 curveto
56.93077299071278 -96.61465754368663 57.22313698437982 -96.48011836814068 57.58190813520737 -96.48011836814068 curveto
57.895832906215006 -96.48011836814068 58.16577369802045 -96.60775811019873 58.391730528589726 -96.86303758290293 curveto
58.391730528589726 -96.54221337593997 lineto
58.904014342933834 -96.54221337593997 lineto
58.904014342933834 -98.58617404933312 lineto
58.904014342933834 -99.02601370101965 58.88115992965993 -99.35158126667427 58.83545110515546 -99.56287677617607 curveto
58.78974227860764 -99.7741722951235 58.70393042703763 -99.94708963893893 58.57801555198758 -100.08162882049926 curveto
58.35550843407558 -100.31793482944457 58.00967373750028 -100.43608782335352 57.54051146334118 -100.43608782335352 curveto
57.212787801300244 -100.43608782335352 56.898863044943 -100.3860668433578 56.59873717838534 -100.28602488783858 curveto
closepath
58.391730528589726 -98.37919069000218 moveto
58.391730528589726 -97.21232200177393 lineto
58.167498549298564 -96.97946571558694 57.92343067417097 -96.86303758290293 57.65952689495648 -96.86303758290293 curveto
57.42494574739034 -96.86303758290293 57.24124802099609 -96.9570425280673 57.10843370073781 -97.14505240999137 curveto
56.975619374542276 -97.33306230032011 56.90921221738177 -97.59092906810025 56.90921221738177 -97.91865271549081 curveto
56.90921221738177 -98.53442822785193 57.1256823204667 -98.84231595650519 57.558622507282635 -98.84231595650519 curveto
57.85357380311948 -98.84231595650519 58.13127647197934 -98.68794086307011 58.391730528589726 -98.37919069000218 curveto
closepath
fill
newpath
0.0 0.0 0.0 setrgbcolor
1.0 setlinewidth
10.0 setmiterlimit
1 setlinejoin
1 setlinecap
[ ] 0 setdash
newpath
134.79021826570414 -218.77351418205166 moveto
135.7867703732954 -217.32727186064312 lineto
136.78332248088668 -215.8810430147137 lineto
137.7798880639571 -214.43480069330514 lineto
138.77644017154836 -212.9885718473757 lineto
139.77299227913963 -211.5423430014463 lineto
140.76954438673093 -210.09610068003775 lineto
141.7661099698013 -208.64987183410832 lineto
142.7626620773926 -207.2036429881789 lineto
143.75921418498388 -205.75740066677037 lineto
144.75576629257515 -204.31117182084094 lineto
145.75231840016642 -202.8649294994324 lineto
146.74888398323682 -201.41870065350298 lineto
147.7454360908281 -199.97247180757356 lineto
148.74198819841936 -198.52622948616502 lineto
149.73854030601066 -197.0800006402356 lineto
150.73510588908104 -195.63375831882703 lineto
151.7316579966723 -194.18752947289764 lineto
152.7282101042636 -192.7413006269682 lineto
153.72476221185488 -191.29505830555965 lineto
154.72131431944615 -189.84882945963022 lineto
155.71787990251656 -188.40260061370083 lineto
156.71443201010783 -186.95635829229226 lineto
157.7109841176991 -185.51012944636284 lineto
158.70753622529037 -184.0638871249543 lineto
159.70410180836078 -182.61765827902488 lineto
160.70065391595205 -181.17142943309545 lineto
161.69720602354334 -179.72518711168692 lineto
162.69375813113462 -178.2789582657575 lineto
163.69031023872589 -176.83271594434896 lineto
164.6868758217963 -175.38648709841954 lineto
165.68342792938756 -173.9402582524901 lineto
166.67998003697883 -172.49401593108155 lineto
167.6765321445701 -171.04778708515215 lineto
168.6730977276405 -169.60155823922273 lineto
169.66964983523178 -168.15531591781416 lineto
170.66620194282305 -166.70908707188474 lineto
171.66275405041435 -165.2628447504762 lineto
172.65930615800562 -163.81661590454678 lineto
173.65587174107603 -162.37038705861735 lineto
174.6524238486673 -160.92414473720882 lineto
175.64897595625857 -159.4779158912794 lineto
176.64552806384984 -158.03168704534997 lineto
177.64209364692024 -156.58544472394144 lineto
178.63864575451151 -155.139215878012 lineto
179.63519786210279 -153.69297355660345 lineto
180.63174996969406 -152.24674471067405 lineto
181.62831555276446 -150.80051586474463 lineto
182.62486766035573 -149.35427354333606 lineto
183.62141976794703 -147.90804469740667 lineto
184.6179718755383 -146.4618023759981 lineto
185.61452398312957 -145.01557353006868 lineto
186.61108956619998 -143.56934468413925 lineto
187.60764167379125 -142.12310236273072 lineto
188.60419378138252 -140.6768735168013 lineto
189.6007458889738 -139.23064467087187 lineto
190.5973114720442 -137.78440234946333 lineto
191.59386357963547 -136.3381735035339 lineto
192.59041568722674 -134.89193118212538 lineto
193.58696779481804 -133.44570233619595 lineto
194.5835199024093 -131.99947349026652 lineto
195.5800854854797 -130.55323116885796 lineto
196.57663759307098 -129.10700232292857 lineto
197.57318970066225 -127.66076000152 lineto
198.56974180825353 -126.21453115559059 lineto
199.56630739132393 -124.76830230966117 lineto
200.5628594989152 -123.32205998825262 lineto
201.55941160650647 -121.87583114232321 lineto
202.55596371409777 -120.42960229639378 lineto
203.55251582168904 -118.98335997498523 lineto
204.54908140475942 -117.53713112905581 lineto
205.54563351235072 -116.09088880764726 lineto
206.542185619942 -114.64465996171785 lineto
207.53873772753326 -113.19843111578842 lineto
208.53530331060367 -111.75219553211944 lineto
209.53185541819494 -110.30595994845046 lineto
210.5284075257862 -108.85972436478147 lineto
211.52495963337748 -107.41348878111249 lineto
212.52151174096878 -105.96725319744351 lineto
213.51807732403915 -104.52102435151409 lineto
214.51462943163045 -103.0747887678451 lineto
215.51118153922172 -101.62855318417611 lineto
216.507733646813 -100.18231760050713 lineto
217.5042992298834 -98.73608875457772 lineto
218.50085133747467 -97.28985317090873 lineto
219.49740344506594 -95.84361758723975 lineto
220.4939555526572 -94.39738200357077 lineto
221.49050766024848 -92.95115315764134 lineto
222.4870732433189 -91.50491757397236 lineto
223.48362535091016 -90.05868199030337 lineto
224.48017745850146 -88.61244640663439 lineto
225.47672956609273 -87.16621756070498 lineto
226.47329514916314 -85.71998197703599 lineto
227.46983378127527 -84.273746393367 lineto
228.46639936434568 -82.82751080969803 lineto
229.46296494741608 -81.38127522602903 lineto
230.45950357952822 -79.93504638009962 lineto
231.45606916259862 -78.48881079643063 lineto
232.4526077947108 -77.04257521276165 lineto
233.44917337778116 -75.59633962909267 lineto
234.44573896085157 -74.15011078316324 lineto
235.44227759296373 -72.70387519949426 lineto
236.43884317603414 -71.25763961582528 lineto
237.43540875910452 -69.81140403215629 lineto
238.43194739121668 -68.36517518622688 lineto
239.4285129742871 -66.91893960255788 lineto
240.42505160639922 -65.4727040188889 lineto
241.42161718946963 -64.02646843521993 lineto
242.41818277254004 -62.58023285155094 lineto
243.4147214046522 -61.13400400562152 lineto
244.41128698772258 -59.68776842195253 lineto
245.40782561983474 -58.241532838283554 lineto
246.40439120290515 -56.79529725461457 lineto
247.40095678597552 -55.349065039815365 lineto
248.3974954180877 -53.90283282501616 lineto
249.3940610011581 -52.45659724134718 lineto
250.39059963327023 -51.01036502654798 lineto
251.38716521634063 -49.56412944287899 lineto
252.38373079941104 -48.11789722807979 lineto
253.3802694315232 -46.67166164441081 lineto
254.37683501459358 -45.22542942961161 lineto
255.373400597664 -43.77919384594262 lineto
256.36993922977615 -42.33296163114342 lineto
257.36650481284653 -40.88672604747444 lineto
258.3630434449587 -39.44049046380545 lineto
259.35960902802907 -37.99425824900625 lineto
260.3561746110995 -36.54802266533727 lineto
261.35271324321167 -35.10179045053807 lineto
262.34927882628205 -33.65555486686908 lineto
stroke
newpath
0.0 0.0 0.0 setrgbcolor
1.0 setlinewidth
10.0 setmiterlimit
1 setlinejoin
1 setlinecap
[ ] 0 setdash
newpath
7.2311636006483475 -76.79457923271951 moveto
8.427028993297192 -77.86579897013193 lineto
9.622895228163483 -78.9370119698048 lineto
10.818761463029773 -80.00822496947767 lineto
12.014627697896064 -81.07943796915052 lineto
13.210493932762354 -82.15065096882338 lineto
14.406360167628643 -83.22186396849625 lineto
15.602226402494933 -84.2930769681691 lineto
16.798092637361222 -85.36428996784197 lineto
17.993958872227513 -86.43550296751482 lineto
19.189825107093803 -87.50671596718769 lineto
20.385691341960094 -88.57792896686055 lineto
21.581557576826384 -89.6491419665334 lineto
22.777423811692675 -90.72036170394584 lineto
23.973288362124073 -91.79157470361869 lineto
25.169154596990364 -92.86278770329156 lineto
26.365020831856654 -93.93400070296441 lineto
27.560887066722945 -95.00521370263728 lineto
28.756753301589235 -96.07642670231014 lineto
29.952621220890414 -97.147639701983 lineto
31.148485771321816 -98.21885270165586 lineto
32.344353690622995 -99.29006570132873 lineto
33.5402182410544 -100.36127870100158 lineto
34.73608279148579 -101.43249170067445 lineto
35.93195071078698 -102.50370470034731 lineto
37.12781526121837 -103.57491770002017 lineto
38.32368318051956 -104.64613743743259 lineto
39.519547730950954 -105.71735043710545 lineto
40.71541565025213 -106.78856343677832 lineto
41.911280200683535 -107.85977643645117 lineto
43.107148119984714 -108.93098943612404 lineto
44.303012670416116 -110.0022024357969 lineto
45.498880589717295 -111.07341543546976 lineto
46.6947451401487 -112.14462843514262 lineto
47.890613059449876 -113.21584143481549 lineto
49.08647760988128 -114.28706117222791 lineto
50.28234552918246 -115.3582674341612 lineto
51.47821007961386 -116.42948717157363 lineto
52.67407799891504 -117.50069343350692 lineto
53.86994254934644 -118.57191317091934 lineto
55.06581046864762 -119.64311943285264 lineto
56.261675019079014 -120.71433917026508 lineto
57.4575429383802 -121.78554543219838 lineto
58.65340411994182 -122.8567651696108 lineto
59.849272039243 -123.92798490702322 lineto
61.045139958544176 -124.99919116895651 lineto
62.241007877845355 -126.07041090636893 lineto
63.43686905940698 -127.14161716830223 lineto
64.63273697870815 -128.21283690571465 lineto
65.82860489800935 -129.28404316764795 lineto
67.02447281731052 -130.35526290506039 lineto
68.22033399887214 -131.42646916699368 lineto
69.41620191817331 -132.49768890440612 lineto
70.6120698374745 -133.56889516633942 lineto
71.80793775677569 -134.64011490375182 lineto
73.0037989383373 -135.71132116568512 lineto
74.19966685763848 -136.78254090309755 lineto
75.39553477693966 -137.85376064050996 lineto
76.59140269624083 -138.92496690244326 lineto
77.78726387780246 -139.9961866398557 lineto
78.98313179710364 -141.067392901789 lineto
80.17899971640482 -142.13861263920143 lineto
81.37486089796644 -143.20981890113472 lineto
82.57072881726762 -144.28103863854713 lineto
83.7665967365688 -145.35224490048043 lineto
84.96246465586998 -146.42346463789286 lineto
86.1583258374316 -147.49467089982616 lineto
87.35419375673278 -148.5658906372386 lineto
88.55006167603396 -149.6370968991719 lineto
89.74592959533514 -150.7083166365843 lineto
90.94179077689677 -151.77953637399673 lineto
92.13765869619795 -152.85074263593003 lineto
93.33352661549912 -153.92196237334244 lineto
94.5293945348003 -154.99316863527577 lineto
95.72525571636191 -156.06438837268817 lineto
96.92112363566311 -157.13559463462147 lineto
98.11699155496429 -158.2068143720339 lineto
99.31285947426547 -159.2780206339672 lineto
100.50872065582708 -160.3492403713796 lineto
101.70458857512826 -161.4204466333129 lineto
102.90045649442945 -162.49166637072534 lineto
104.09631767599106 -163.56288610813777 lineto
105.29218559529224 -164.63409237007107 lineto
106.48805351459342 -165.70531210748348 lineto
107.6839214338946 -166.77651836941678 lineto
108.87978261545622 -167.8477381068292 lineto
110.0756505347574 -168.9189443687625 lineto
111.27151845405858 -169.99016410617494 lineto
112.46738637335976 -171.06137036810824 lineto
113.66325429266094 -172.13259010552065 lineto
114.85912221196213 -173.20379636745395 lineto
116.05497665578419 -174.27501610486638 lineto
117.25084457508537 -175.34622236679968 lineto
118.44671249438655 -176.41744210421209 lineto
119.64258041368772 -177.48866184162452 lineto
120.8384483329889 -178.55986810355782 lineto
122.03431625229008 -179.63108784097025 lineto
123.23018417159126 -180.70229410290355 lineto
124.42603861541332 -181.77351384031596 lineto
125.6219065347145 -182.84472010224925 lineto
126.81777445401569 -183.9159398396617 lineto
128.01364237331686 -184.987146101595 lineto
129.20951029261803 -186.05836583900742 lineto
130.4053782119192 -187.12957210094072 lineto
131.6012461312204 -188.20079183835313 lineto
132.7971140505216 -189.27199810028642 lineto
133.99296849434364 -190.34321783769886 lineto
135.18883641364482 -191.4144375751113 lineto
136.384704332946 -192.4856438370446 lineto
137.58057225224718 -193.556863574457 lineto
138.77644017154836 -194.6280698363903 lineto
139.97230809084954 -195.69928957380273 lineto
141.16817601015072 -196.77049583573603 lineto
142.3640439294519 -197.84171557314843 lineto
143.55989837327397 -198.91292183508173 lineto
144.75576629257515 -199.98414157249417 lineto
145.95163421187632 -201.05534783442747 lineto
147.1475021311775 -202.1265675718399 lineto
148.34337005047868 -203.1977873092523 lineto
149.53923796977986 -204.2689935711856 lineto
150.73510588908104 -205.34021330859804 lineto
151.9309603329031 -206.41141957053134 lineto
153.1268282522043 -207.48263930794377 lineto
154.32269617150547 -208.55384556987707 lineto
155.51856409080665 -209.62506530728947 lineto
156.71443201010783 -210.69627156922277 lineto
157.910299929409 -211.7674913066352 lineto
159.1061678487102 -212.8386975685685 lineto
160.30203576801136 -213.9099173059809 lineto
stroke
newpath
0.0 0.0 0.0 setrgbcolor
1.0 setlinewidth
10.0 setmiterlimit
1 setlinejoin
1 setlinecap
[ ] 0 setdash
newpath
92.27053365809135 -212.93898208420268 moveto
93.59927653928595 -212.03178587867674 lineto
94.92801268274098 -211.1245896731508 lineto
96.25675556393558 -210.21739346762485 lineto
97.58549170739062 -209.31021073757805 lineto
98.91423458858522 -208.4030145320521 lineto
100.24297746977982 -207.49581832652615 lineto
101.57171361323485 -206.5886221210002 lineto
102.90045649442945 -205.68142591547428 lineto
104.22919263788448 -204.77422970994834 lineto
105.55793551907908 -203.86704697990152 lineto
106.88667166253411 -202.95985077437558 lineto
108.2154145437287 -202.05265456884965 lineto
109.5441574249233 -201.1454583633237 lineto
110.87289356837833 -200.23826215779775 lineto
112.20163644957293 -199.3310659522718 lineto
113.53037259302796 -198.423883222225 lineto
114.85912221196213 -197.51668701669905 lineto
116.18785835541716 -196.60949081117312 lineto
117.5165944988722 -195.70229460564718 lineto
118.84533064232723 -194.79509840012125 lineto
120.17408026126138 -193.88790219459528 lineto
121.50281640471643 -192.98070598906935 lineto
122.83155254817146 -192.07352325902255 lineto
124.16030216710561 -191.1663270534966 lineto
125.48903831056064 -190.25913084797065 lineto
126.81777445401569 -189.35193464244472 lineto
128.14652407294983 -188.44473843691878 lineto
129.47526021640488 -187.53754223139285 lineto
130.80399635985992 -186.63035950134602 lineto
132.13273250331494 -185.7231632958201 lineto
133.4614821222491 -184.81596709029412 lineto
134.79021826570414 -183.9087708847682 lineto
136.1189544091592 -183.00157467924225 lineto
137.44770402809334 -182.09437847371632 lineto
138.77644017154836 -181.18718226819038 lineto
140.1051763150034 -180.27999953814356 lineto
141.43391245845842 -179.37280333261762 lineto
142.7626620773926 -178.4656071270917 lineto
144.09139822084762 -177.55841092156572 lineto
145.42013436430267 -176.6512147160398 lineto
146.74888398323682 -175.74401851051385 lineto
148.07762012669187 -174.83683578046703 lineto
149.4063562701469 -173.9296395749411 lineto
150.73510588908104 -173.02244336941516 lineto
152.0638420325361 -172.11524716388922 lineto
153.3925781759911 -171.20805095836326 lineto
154.72131431944615 -170.30085475283732 lineto
156.0500639383803 -169.39367202279053 lineto
157.37880008183535 -168.48647581726456 lineto
158.70753622529037 -167.57927961173863 lineto
160.03628584422455 -166.6720834062127 lineto
161.36502198767957 -165.76488720068676 lineto
162.69375813113462 -164.85769099516082 lineto
164.02250775006877 -163.95049478963486 lineto
165.3512438935238 -163.04331205958806 lineto
166.67998003697883 -162.13611585406213 lineto
168.00871618043388 -161.22891964853616 lineto
169.33746579936803 -160.32172344301023 lineto
170.66620194282305 -159.4145272374843 lineto
171.9949380862781 -158.50733103195836 lineto
173.32368770521225 -157.60014830191153 lineto
174.6524238486673 -156.6929520963856 lineto
175.98115999212231 -155.78575589085966 lineto
177.30990961105647 -154.8785596853337 lineto
178.63864575451151 -153.97136347980776 lineto
179.96738189796656 -153.06416727428183 lineto
181.29611804142158 -152.1569710687559 lineto
182.62486766035573 -151.24978833870907 lineto
183.95360380381078 -150.34259213318313 lineto
185.28233994726583 -149.4353959276572 lineto
186.61108956619998 -148.52819972213126 lineto
187.939825709655 -147.6210035166053 lineto
189.26856185311004 -146.71380731107936 lineto
190.5973114720442 -145.80662458103254 lineto
191.92604761549924 -144.8994283755066 lineto
193.25478375895426 -143.99223216998067 lineto
194.5835199024093 -143.08503596445473 lineto
195.91226952134346 -142.1778397589288 lineto
197.2410056647985 -141.27064355340283 lineto
198.56974180825353 -140.36346082335604 lineto
199.89849142718768 -139.4562646178301 lineto
201.22722757064273 -138.54906841230414 lineto
202.55596371409777 -137.6418722067782 lineto
203.8846998575528 -136.73467600125227 lineto
205.21344947648694 -135.82747979572633 lineto
206.542185619942 -134.9202835902004 lineto
207.870921763397 -134.01310086015357 lineto
209.1996713823312 -133.10590465462764 lineto
210.5284075257862 -132.1987084491017 lineto
211.85714366924125 -131.29151224357574 lineto
213.1858932881754 -130.3843160380498 lineto
214.51462943163045 -129.47711983252387 lineto
215.84336557508547 -128.56993710247704 lineto
217.17210171854052 -127.6627408969511 lineto
218.50085133747467 -126.75554469142517 lineto
219.8295874809297 -125.84834848589922 lineto
221.15832362438474 -124.94115228037329 lineto
222.4870732433189 -124.03395607484734 lineto
223.81580938677394 -123.1267598693214 lineto
225.14454553022895 -122.21957713927459 lineto
226.47329514916314 -121.31238093374864 lineto
227.80203129261815 -120.40518472822271 lineto
229.1307674360732 -119.49798852269676 lineto
230.45950357952822 -118.59079231717082 lineto
231.78823972298326 -117.68359611164489 lineto
233.11700281739655 -116.77641338159806 lineto
234.44573896085157 -115.86921717607213 lineto
235.77447510430662 -114.96202097054619 lineto
237.10321124776164 -114.05482476502024 lineto
238.43194739121668 -113.14762855949431 lineto
239.76068353467173 -112.24043909170793 lineto
241.08941967812675 -111.33324288618198 lineto
242.41818277254004 -110.42604668065604 lineto
243.74691891599505 -109.51885721286966 lineto
245.0756550594501 -108.61166100734373 lineto
246.40439120290515 -107.70446480181778 lineto
247.73312734636016 -106.7972753340314 lineto
249.0618634898152 -105.89007912850546 lineto
250.39059963327023 -104.98288292297953 lineto
251.71936272768352 -104.07569345519315 lineto
253.04809887113856 -103.1684972496672 lineto
254.37683501459358 -102.26130104414126 lineto
255.70557115804863 -101.35410483861533 lineto
257.03430730150365 -100.44691537082895 lineto
258.3630434449587 -99.539719165303 lineto
259.69180653937195 -98.63252295977706 lineto
261.020542682827 -97.72533349199068 lineto
262.34927882628205 -96.81813728646475 lineto
stroke
newpath
0.0 0.0 0.0 setrgbcolor
1.0 setlinewidth
10.0 setmiterlimit
1 setlinejoin
1 setlinecap
[ ] 0 setdash
newpath
75.7369590574623 -173.99861809765062 moveto
75.7369590574623 -174.7302261157449 75.14387357583848 -175.3233115973687 74.41226555774419 -175.3233115973687 curveto
73.6806575396499 -175.3233115973687 73.08757205802608 -174.7302261157449 73.08757205802608 -173.99861809765062 curveto
73.08757205802608 -173.26701007955631 73.6806575396499 -172.6739245979325 74.41226555774419 -172.6739245979325 curveto
75.14387357583848 -172.6739245979325 75.7369590574623 -173.26701007955631 75.7369590574623 -173.99861809765062 curveto
closepath
fill
newpath
0.0 0.0 0.0 setrgbcolor
1.0 setlinewidth
10.0 setmiterlimit
1 setlinejoin
1 setlinecap
[ ] 0 setdash
newpath
75.7369590574623 -173.99861809765062 moveto
75.7369590574623 -174.7302261157449 75.14387357583848 -175.3233115973687 74.41226555774419 -175.3233115973687 curveto
73.6806575396499 -175.3233115973687 73.08757205802608 -174.7302261157449 73.08757205802608 -173.99861809765062 curveto
73.08757205802608 -173.26701007955631 73.6806575396499 -172.6739245979325 74.41226555774419 -172.6739245979325 curveto
75.14387357583848 -172.6739245979325 75.7369590574623 -173.26701007955631 75.7369590574623 -173.99861809765062 curveto
closepath
stroke
newpath
0.0 0.0 0.0 setrgbcolor
1.0 setlinewidth
10.0 setmiterlimit
1 setlinejoin
1 setlinecap
[ ] 0 setdash
newpath
76.14141602188286 -181.56752766644013 moveto
75.83611555777104 -181.84868007124368 75.54202670627177 -181.98925626107695 75.25914945273468 -181.98925626107695 curveto
75.0262931665477 -181.98925626107695 74.83310870249095 -181.9163808678073 74.679596046608 -181.77063008778362 curveto
74.52608338386251 -181.62487930124436 74.44932705935231 -181.4407503555343 74.44932705935231 -181.21824324756915 curveto
74.44932705935231 -180.91121792207818 74.57826044744473 -180.67534314220276 74.83612721210204 -180.51061888785645 curveto
75.09399398828688 -180.3458946261464 75.46354552724497 -180.26353250265512 75.94478183051845 -180.26353250265512 curveto
76.06638455412539 -180.26353250265512 lineto
76.06638455412539 -179.92459725175067 lineto
76.06638455412539 -179.5985984510889 75.8990730003466 -179.4355990653313 75.56444990774783 -179.4355990653313 curveto
75.29537153259842 -179.4355990653313 75.00473240223823 -179.51839241153112 74.6925325065662 -179.68397909652845 curveto
74.6925325065662 -179.26225050189163 lineto
75.0357799210196 -179.12253673017943 75.35746655288911 -179.05267985056904 75.65759241944676 -179.05267985056904 curveto
75.97151719045439 -179.05267985056904 76.20307981657346 -179.1233991671147 76.35228031920127 -179.26483779388326 curveto
76.50148082849886 -179.4062764269746 76.57608107647786 -179.62619624649506 76.57608107647786 -179.92459725175067 curveto
76.57608107647786 -181.19754491163604 lineto
76.57608107647786 -181.48904648471455 76.66577386819434 -181.63479725822268 76.84515944360811 -181.63479725822268 curveto
76.86758264153723 -181.63479725822268 76.90035500673892 -181.63134753546436 76.9434765392903 -181.62444809025612 curveto
76.97969862717322 -181.90646291734456 lineto
76.86413291476931 -181.96165848147777 76.73649317787745 -181.98925626107695 76.59677941241097 -181.98925626107695 curveto
76.35874854208649 -181.98925626107695 76.20696075136097 -181.84868005867517 76.14141602188286 -181.56752766644013 curveto
closepath
76.06638455412539 -181.290687423335 moveto
76.06638455412539 -180.563658373685 lineto
75.89562328267736 -180.55848378970174 lineto
75.61619573925299 -180.55848378970174 75.39023891107404 -180.611523277111 75.21775278086848 -180.7176022471874 curveto
75.0452666429522 -180.82368122200592 74.9590235817048 -180.9629637736312 74.9590235817048 -181.13544990383676 curveto
74.9590235817048 -181.25791506175733 75.00214511618387 -181.36140673903247 75.08838818128663 -181.4459249428332 curveto
75.17463125024477 -181.53044315041217 75.27984779051835 -181.5727022504234 75.40403780426634 -181.5727022504234 curveto
75.61619575390337 -181.5727022504234 75.83697800095202 -181.47869730525903 76.06638455412539 -181.290687423335 curveto
closepath
fill
newpath
0.0 0.0 0.0 setrgbcolor
1.0 setlinewidth
10.0 setmiterlimit
1 setlinejoin
1 setlinecap
[ ] 0 setdash
newpath
239.86294330943082 -173.99861809765062 moveto
239.86294330943082 -174.7302261157449 239.26985782780704 -175.3233115973687 238.5382498097127 -175.3233115973687 curveto
237.8066417916184 -175.3233115973687 237.21355630999463 -174.7302261157449 237.21355630999463 -173.99861809765062 curveto
237.21355630999463 -173.26701007955631 237.8066417916184 -172.6739245979325 238.5382498097127 -172.6739245979325 curveto
239.26985782780704 -172.6739245979325 239.86294330943082 -173.26701007955631 239.86294330943082 -173.99861809765062 curveto
closepath
fill
newpath
0.0 0.0 0.0 setrgbcolor
1.0 setlinewidth
10.0 setmiterlimit
1 setlinejoin
1 setlinecap
[ ] 0 setdash
newpath
239.86294330943082 -173.99861809765062 moveto
239.86294330943082 -174.7302261157449 239.26985782780704 -175.3233115973687 238.5382498097127 -175.3233115973687 curveto
237.8066417916184 -175.3233115973687 237.21355630999463 -174.7302261157449 237.21355630999463 -173.99861809765062 curveto
237.21355630999463 -173.26701007955631 237.8066417916184 -172.6739245979325 238.5382498097127 -172.6739245979325 curveto
239.26985782780704 -172.6739245979325 239.86294330943082 -173.26701007955631 239.86294330943082 -173.99861809765062 curveto
closepath
stroke
newpath
0.0 0.0 0.0 setrgbcolor
1.0 setlinewidth
10.0 setmiterlimit
1 setlinejoin
1 setlinecap
[ ] 0 setdash
newpath
239.39609097151688 -182.83875046499773 moveto
239.39609097151688 -178.7223689063034 lineto
239.90578749386935 -178.7223689063034 lineto
239.90578749386935 -180.52571142447434 lineto
240.11449572074804 -180.1324430300252 240.42755805173613 -179.9358088503811 240.84497448683356 -179.9358088503811 curveto
241.1830473171495 -179.9358088503811 241.4491071697723 -180.05913643899126 241.64315406625354 -180.3057916051852 curveto
241.83720097140935 -180.55244678240547 241.93422441531268 -180.88965717100547 241.93422441531268 -181.3174227739152 curveto
241.93422441531268 -181.78313534628919 241.82426450239106 -182.1587238907829 241.604344686379 -182.4441884362731 curveto
241.38442486053572 -182.72965299452454 241.09507937401236 -182.87238526088902 240.7363082231848 -182.87238526088902 curveto
240.4034099770064 -182.87238526088902 240.12656974053246 -182.74474551883097 239.90578749386935 -182.48946604612675 curveto
239.84369248607007 -182.83875046499773 lineto
closepath
239.90578749386935 -182.1375943352641 moveto
240.16796642350212 -182.37217548283027 240.4180713117604 -182.48946604612675 240.65610217144405 -182.48946604612675 curveto
241.1459628031263 -182.48946604612675 241.39089309706895 -182.116033557538 241.39089309706895 -181.36916861374797 curveto
241.39089309706895 -180.71027156690778 241.17356056329444 -180.38082307294266 240.73889551517644 -180.38082307294266 curveto
240.45429338761457 -180.38082307294266 240.17659071829206 -180.53519816637774 239.90578749386935 -180.84394833944566 curveto
closepath
fill
newpath
grestore
grestore
showpage

%%EOF