%!PS-Adobe-3.0 EPSF-3.0
%%Creator: EpsGraphics 1.0.0 by Thomas Abeel, http://www.sourceforge.net/epsgraphics/
%%Title: GeoGebra, http://www.geogebra.org/
%%CreationDate: Mon Dec 15 18:19:17 CET 2014
%%BoundingBox: 0 0 496 305
%%DocumentData: Clean7Bit
%%LanguageLevel: 2
%%DocumentProcessColors: Black
%%ColorUsage: Color
%%Origin: 0 0
%%Pages: 1
%%Page: 1 1
%%EndComments

gsave
0.0 305.0 translate
0.0 0.0 0.0 setrgbcolor
0.0 0.0 0.0 setrgbcolor
gsave
newpath
0.0 -0.0 moveto
496.1658702402641 -0.0 lineto
496.1658702402641 -305.14201019776243 lineto
0.0 -305.14201019776243 lineto
0.0 -0.0 lineto
closepath
clip
newpath
1.0 1.0 1.0 setrgbcolor
newpath
0.0 -0.0 moveto
496.1658702402641 -0.0 lineto
496.1658702402641 -305.14201019776243 lineto
0.0 -305.14201019776243 lineto
0.0 -0.0 lineto
closepath
fill
newpath
0.0 0.0 0.0 setrgbcolor
1.0 setlinewidth
10.0 setmiterlimit
0 setlinejoin
0 setlinecap
[ ] 0 setdash
newpath
33.78891070836155 -2.4808293512013204 moveto
33.78891070836155 -305.14201019776243 lineto
stroke
newpath
1.0 setlinewidth
10.0 setmiterlimit
0 setlinejoin
0 setlinecap
[ ] 0 setdash
newpath
34.40911804616188 -1.2404146756006602 moveto
30.06766668155957 -4.961658702402641 lineto
stroke
newpath
1.0 setlinewidth
10.0 setmiterlimit
0 setlinejoin
0 setlinecap
[ ] 0 setdash
newpath
33.16870337056122 -1.2404146756006602 moveto
37.51015473516353 -4.961658702402641 lineto
stroke
newpath
1.0 setlinewidth
10.0 setmiterlimit
0 setlinejoin
0 setlinecap
[ ] 0 setdash
newpath
0.0 -296.2997583319895 moveto
493.68504088906275 -296.2997583319895 lineto
stroke
newpath
1.0 setlinewidth
10.0 setmiterlimit
0 setlinejoin
0 setlinecap
[ ] 0 setdash
newpath
494.9254555646634 -296.9199656697898 moveto
491.20421153786145 -292.5785143051875 lineto
stroke
newpath
1.0 setlinewidth
10.0 setmiterlimit
0 setlinejoin
0 setlinecap
[ ] 0 setdash
newpath
494.9254555646634 -295.6795509941891 moveto
491.20421153786145 -300.02100235879146 lineto
stroke
newpath
1.0 setlinewidth
10.0 setmiterlimit
0 setlinejoin
0 setlinecap
[ ] 0 setdash
newpath
90.48182409418833 -296.2997583319895 moveto
90.48182409418833 -301.26141703439214 lineto
stroke
newpath
1.0 setlinewidth
10.0 setmiterlimit
0 setlinejoin
0 setlinecap
[ ] 0 setdash
newpath
147.1747374800151 -296.2997583319895 moveto
147.1747374800151 -301.26141703439214 lineto
stroke
newpath
1.0 setlinewidth
10.0 setmiterlimit
0 setlinejoin
0 setlinecap
[ ] 0 setdash
newpath
203.86765086584185 -296.2997583319895 moveto
203.86765086584185 -301.26141703439214 lineto
stroke
newpath
1.0 setlinewidth
10.0 setmiterlimit
0 setlinejoin
0 setlinecap
[ ] 0 setdash
newpath
260.5605642516686 -296.2997583319895 moveto
260.5605642516686 -301.26141703439214 lineto
stroke
newpath
1.0 setlinewidth
10.0 setmiterlimit
0 setlinejoin
0 setlinecap
[ ] 0 setdash
newpath
317.2534776374954 -296.2997583319895 moveto
317.2534776374954 -301.26141703439214 lineto
stroke
newpath
1.0 setlinewidth
10.0 setmiterlimit
0 setlinejoin
0 setlinecap
[ ] 0 setdash
newpath
373.9463910233222 -296.2997583319895 moveto
373.9463910233222 -301.26141703439214 lineto
stroke
newpath
1.0 setlinewidth
10.0 setmiterlimit
0 setlinejoin
0 setlinecap
[ ] 0 setdash
newpath
430.63930440914896 -296.2997583319895 moveto
430.63930440914896 -301.26141703439214 lineto
stroke
newpath
1.0 setlinewidth
10.0 setmiterlimit
0 setlinejoin
0 setlinecap
[ ] 0 setdash
newpath
28.827252005958908 -296.2997583319895 moveto
33.78891070836155 -296.2997583319895 lineto
stroke
newpath
1.0 setlinewidth
10.0 setmiterlimit
0 setlinejoin
0 setlinecap
[ ] 0 setdash
newpath
28.827252005958908 -200.14686675911645 moveto
33.78891070836155 -200.14686675911645 lineto
stroke
newpath
1.0 setlinewidth
10.0 setmiterlimit
0 setlinejoin
0 setlinecap
[ ] 0 setdash
newpath
28.827252005958908 -103.99397518624338 moveto
33.78891070836155 -103.99397518624338 lineto
stroke
newpath
1.0 0.0 0.0 setrgbcolor
2.0 setlinewidth
10.0 setmiterlimit
1 setlinejoin
1 setlinecap
[ ] 0 setdash
newpath
123.43579633174538 10.548006946285508 moveto
123.55693057740952 2.9840466185926293 lineto
123.67806482307364 -4.201429226194456 lineto
123.79919906873776 -11.036090417892222 lineto
123.92033331440189 -17.54497649339493 lineto
124.04146756006602 -23.750793913268613 lineto
124.28373605139427 -35.33399117373836 lineto
124.52600454272253 -45.93002240685225 lineto
124.76827303405078 -55.65969063182143 lineto
125.01054152537904 -64.62484561703641 lineto
125.25281001670729 -72.91199424840468 lineto
125.49507850803555 -80.59505207481371 lineto
125.7373469993638 -87.73757198897894 lineto
125.97961549069205 -94.39450445945103 lineto
126.46415247334856 -106.43649767537367 lineto
126.94868945600507 -117.03566846208123 lineto
127.43322643866158 -126.43579002535986 lineto
127.91776342131809 -134.8286614087154 lineto
128.40230040397458 -142.36725245175052 lineto
128.8868373866311 -149.17503491252623 lineto
129.85591135194412 -160.9836648968995 lineto
130.82498531725713 -170.86977137561485 lineto
131.79405928257015 -179.26460172684946 lineto
132.76313324788316 -186.47948988918606 lineto
133.73220721319618 -192.74474234719355 lineto
135.6703551438222 -203.08262278055844 lineto
137.60850307444824 -211.252105580406 lineto
139.54665100507427 -217.8625717113304 lineto
143.42294686632633 -227.88342111112118 lineto
147.2992427275784 -235.09338819472765 lineto
151.17553858883048 -240.5064990889398 lineto
155.05183445008254 -244.70247579538983 lineto
158.9281303113346 -248.03669590729493 lineto
162.80442617258666 -250.73899272857687 lineto
166.68072203383872 -252.96466414762224 lineto
170.55701789509078 -254.8222956593334 lineto
174.43331375634284 -256.39011348829314 lineto
178.3096096175949 -257.7258835279025 lineto
182.18590547884696 -258.87311947047124 lineto
186.06220134009902 -259.865284651364 lineto
189.93849720135108 -260.7284986423021 lineto
193.81479306260314 -261.4833921195002 lineto
197.69108892385523 -262.1465642600595 lineto
201.5673847851073 -262.7313966126808 lineto
205.44368064635935 -263.248904822829 lineto
209.31997650761141 -263.7081550317031 lineto
213.19627236886348 -264.11673705688304 lineto
217.07256823011554 -264.48099151904023 lineto
220.9488640913676 -264.80629375032606 lineto
224.82515995261966 -265.09720521217884 lineto
228.70145581387172 -265.3576438403567 lineto
232.57775167512378 -265.5909786810672 lineto
236.45404753637584 -265.8001055998708 lineto
240.33034339762793 -265.98756084503606 lineto
244.20663925888 -266.1555399747656 lineto
248.08293512013205 -266.3059924933256 lineto
251.9592309813841 -266.4406029238199 lineto
255.83552684263617 -266.5608854443192 lineto
259.71182270388823 -266.66816496063547 lineto
263.5881185651403 -266.7636149607736 lineto
267.46441442639235 -266.8482953693832 lineto
271.3407102876444 -266.92313362053255 lineto
275.2170061488965 -266.9889814393865 lineto
279.09330201014853 -267.04659591498057 lineto
282.9695978714006 -267.0966584274464 lineto
286.84589373265266 -267.1397746480125 lineto
290.7221895939047 -267.1765123934553 lineto
294.5984854551568 -267.2073637716479 lineto
298.47478131640884 -267.23280196323736 lineto
302.35107717766095 -267.2532433671932 lineto
306.227373038913 -267.2690476008072 lineto
310.1036689001651 -267.28059320859705 lineto
313.97996476141714 -267.28814517172515 lineto
317.8562606226692 -267.2920441802575 lineto
321.73255648392126 -267.2925362881305 lineto
325.6088523451733 -267.2898675492807 lineto
329.4851482064254 -267.2842650904187 lineto
333.36144406767744 -267.27591818380347 lineto
337.2377399289295 -267.26505395614544 lineto
341.11403579018156 -267.2518048980259 lineto
344.9903316514336 -267.23636028170375 lineto
348.8666275126857 -267.218871524986 lineto
352.74292337393774 -267.19947111845386 lineto
356.6192192351898 -267.1782915526885 lineto
360.49551509644186 -267.1554653182712 lineto
364.3718109576939 -267.1310681241054 lineto
368.248106818946 -267.10523246077236 lineto
372.12440268019805 -267.0780529644014 lineto
376.0006985414501 -267.04960534389625 lineto
379.87699440270217 -267.0200031626121 lineto
383.7532902639542 -266.9892842750007 lineto
387.6295861252063 -266.95754331719155 lineto
391.5058819864584 -266.9248559980881 lineto
395.38217784771047 -266.8912790993681 lineto
399.2584737089625 -266.8568694027091 lineto
403.1347695702146 -266.82168368978887 lineto
407.01106543146665 -266.78575981505907 lineto
410.8873612927187 -266.7491734874233 lineto
414.76365715397077 -266.7119625613334 lineto
418.63995301522283 -266.674164891241 lineto
422.5162488764749 -266.63581833159793 lineto
426.39254473772695 -266.5969796640819 lineto
430.268840598979 -266.5576488886928 lineto
434.1451364602311 -266.5179017143343 lineto
438.02143232148313 -266.4777381410063 lineto
441.8977281827352 -266.43719602316054 lineto
445.77402404398725 -266.39631321524894 lineto
449.6503199052393 -266.35510864449725 lineto
453.5266157664914 -266.31360123813135 lineto
457.40291162774344 -266.27182885060313 lineto
461.2792074889955 -266.2298104091384 lineto
465.15550335024756 -266.18756484096303 lineto
469.0317992114996 -266.14509214607705 lineto
472.9080950727517 -266.1024491061581 lineto
476.7843909340038 -266.0596167939803 lineto
480.66068679525586 -266.0166330639954 lineto
484.5369826565079 -265.9734979162035 lineto
488.41327851776 -265.9302492050562 lineto
492.28957437901204 -265.8868869305536 lineto
496.1658702402641 -265.8434300199216 lineto
stroke
newpath
0.0 0.0 1.0 setrgbcolor
2.0 setlinewidth
10.0 setmiterlimit
1 setlinejoin
1 setlinecap
[ ] 0 setdash
newpath
118.82828078710172 -311.3440835757657 moveto
118.82828078710172 6.202073378003301 lineto
stroke
newpath
0.0 0.0 1.0 setrgbcolor
2.0 setlinewidth
10.0 setmiterlimit
1 setlinejoin
1 setlinecap
[ ] 0 setdash
newpath
129.19451837061797 -18.693436790888075 moveto
129.19451837061797 -7.129961699790513 lineto
130.62632515436798 -7.129961699790513 lineto
130.62632515436798 -12.195795853464304 lineto
131.21261492085515 -11.09105150008352 132.0920495443767 -10.538679372779047 133.26462902493265 -10.538679372779047 curveto
134.21432153924243 -10.538679372779047 134.96171981480975 -10.885123325703285 135.50682391217563 -11.578011200577256 curveto
136.05192803390958 -12.27089910642573 136.3244800704085 -13.218168904775542 136.3244800704085 -14.419820603857675 curveto
136.3244800704085 -15.72807049601913 136.01558773475927 -16.783149748714166 135.39780309107792 -17.585058443061314 curveto
134.78001841977948 -18.386967173256576 133.96720763476665 -18.787921502506094 132.95937072585906 -18.787921502506094 curveto
132.02421432146215 -18.787921502506094 131.24653248292648 -18.429364124654434 130.62632515436798 -17.712249401008645 curveto
130.4518918406116 -18.693436790888075 lineto
closepath
130.62632515436798 -16.72379395638937 moveto
131.36282138995517 -17.382764272441065 132.06540000282163 -17.712249401008645 132.73406102892378 -17.712249401008645 curveto
134.11014610067878 -17.712249401008645 134.79818857504048 -16.663226802293998 134.79818857504048 -14.565181698654627 curveto
134.79818857504048 -12.714250369744716 134.18767195869847 -11.788784788032837 132.96663878059888 -11.788784788032837 curveto
132.16715273538912 -11.788784788032837 131.38704820580304 -12.222445400434506 130.62632515436798 -13.089766586465561 curveto
closepath
fill
newpath
grestore
grestore
showpage

%%EOF