%!PS-Adobe-3.0 EPSF-3.0
%%Creator: EpsGraphics 1.0.0 by Thomas Abeel, http://www.sourceforge.net/epsgraphics/
%%Title: GeoGebra, http://www.geogebra.org/
%%CreationDate: Fri Aug 22 15:44:19 CEST 2014
%%BoundingBox: 0 0 255 240
%%DocumentData: Clean7Bit
%%LanguageLevel: 2
%%DocumentProcessColors: Black
%%ColorUsage: Color
%%Origin: 0 0
%%Pages: 1
%%Page: 1 1
%%EndComments

gsave
0.0 240.0 translate
0.0 0.0 0.0 setrgbcolor
0.0 0.0 0.0 setrgbcolor
gsave
newpath
0.0 -0.0 moveto
255.35858884695088 -0.0 lineto
255.35858884695088 -240.13395753358253 lineto
0.0 -240.13395753358253 lineto
0.0 -0.0 lineto
closepath
clip
newpath
1.0 1.0 1.0 setrgbcolor
newpath
0.0 -0.0 moveto
255.35858884695088 -0.0 lineto
255.35858884695088 -240.13395753358253 lineto
0.0 -240.13395753358253 lineto
0.0 -0.0 lineto
closepath
fill
newpath
0.0 0.0 0.0 setrgbcolor
1.0 setlinewidth
10.0 setmiterlimit
0 setlinejoin
0 setlinecap
[ ] 0 setdash
newpath
36.0092786423054 -1.384057392124395 moveto
36.0092786423054 -240.13395753358253 lineto
stroke
newpath
1.0 setlinewidth
10.0 setmiterlimit
0 setlinejoin
0 setlinecap
[ ] 0 setdash
newpath
36.355292990336494 -0.6920286960621975 moveto
33.933192554118804 -2.76811478424879 lineto
stroke
newpath
1.0 setlinewidth
10.0 setmiterlimit
0 setlinejoin
0 setlinecap
[ ] 0 setdash
newpath
35.6632642942743 -0.6920286960621975 moveto
38.08536473049199 -2.76811478424879 lineto
stroke
newpath
1.0 setlinewidth
10.0 setmiterlimit
0 setlinejoin
0 setlinecap
[ ] 0 setdash
newpath
0.0 -230.8369580771619 moveto
253.9745314548265 -230.8369580771619 lineto
stroke
newpath
1.0 setlinewidth
10.0 setmiterlimit
0 setlinejoin
0 setlinecap
[ ] 0 setdash
newpath
254.6665601508887 -231.18297242519301 moveto
252.5904740627021 -228.7608719889753 lineto
stroke
newpath
1.0 setlinewidth
10.0 setmiterlimit
0 setlinejoin
0 setlinecap
[ ] 0 setdash
newpath
254.6665601508887 -230.4909437291308 moveto
252.5904740627021 -232.9130441653485 lineto
stroke
newpath
1.0 setlinewidth
10.0 setmiterlimit
0 setlinejoin
0 setlinecap
[ ] 0 setdash
newpath
36.0092786423054 -230.8369580771619 moveto
36.0092786423054 -233.6050728614107 lineto
stroke
newpath
1.0 setlinewidth
10.0 setmiterlimit
0 setlinejoin
0 setlinecap
[ ] 0 setdash
newpath
78.52896368167548 -230.8369580771619 moveto
78.52896368167548 -233.6050728614107 lineto
stroke
newpath
1.0 setlinewidth
10.0 setmiterlimit
0 setlinejoin
0 setlinecap
[ ] 0 setdash
newpath
121.04864872104555 -230.8369580771619 moveto
121.04864872104555 -233.6050728614107 lineto
stroke
newpath
1.0 setlinewidth
10.0 setmiterlimit
0 setlinejoin
0 setlinecap
[ ] 0 setdash
newpath
163.56833376041564 -230.8369580771619 moveto
163.56833376041564 -233.6050728614107 lineto
stroke
newpath
1.0 setlinewidth
10.0 setmiterlimit
0 setlinejoin
0 setlinecap
[ ] 0 setdash
newpath
206.08801879978571 -230.8369580771619 moveto
206.08801879978571 -233.6050728614107 lineto
stroke
newpath
1.0 setlinewidth
10.0 setmiterlimit
0 setlinejoin
0 setlinecap
[ ] 0 setdash
newpath
33.2411638580566 -230.8369580771619 moveto
36.0092786423054 -230.8369580771619 lineto
stroke
newpath
1.0 setlinewidth
10.0 setmiterlimit
0 setlinejoin
0 setlinecap
[ ] 0 setdash
newpath
33.2411638580566 -188.3172730377918 moveto
36.0092786423054 -188.3172730377918 lineto
stroke
newpath
1.0 setlinewidth
10.0 setmiterlimit
0 setlinejoin
0 setlinecap
[ ] 0 setdash
newpath
33.2411638580566 -145.7975879984217 moveto
36.0092786423054 -145.7975879984217 lineto
stroke
newpath
1.0 setlinewidth
10.0 setmiterlimit
0 setlinejoin
0 setlinecap
[ ] 0 setdash
newpath
33.2411638580566 -103.27790295905162 moveto
36.0092786423054 -103.27790295905162 lineto
stroke
newpath
1.0 setlinewidth
10.0 setmiterlimit
0 setlinejoin
0 setlinecap
[ ] 0 setdash
newpath
33.2411638580566 -60.75821791968152 moveto
36.0092786423054 -60.75821791968152 lineto
stroke
newpath
1.0 setlinewidth
10.0 setmiterlimit
0 setlinejoin
0 setlinecap
[ ] 0 setdash
newpath
33.2411638580566 -18.23853288031143 moveto
36.0092786423054 -18.23853288031143 lineto
stroke
newpath
1.0 0.0 0.0 setrgbcolor
2.0 setlinewidth
10.0 setmiterlimit
1 setlinejoin
1 setlinecap
[ ] 0 setdash
newpath
0.0 -215.58909269612138 moveto
1.9949889753668038 -217.23181608767723 lineto
3.9899779507336075 -218.7809398948536 lineto
5.9849669261004115 -220.2364641176504 lineto
7.979955901467215 -221.59838875606775 lineto
9.97494487683402 -222.86669269106577 lineto
11.969933852200823 -224.0413970416843 lineto
13.964922827567626 -225.1225018079233 lineto
15.95991180293443 -226.1100069897828 lineto
17.954900778301234 -227.0039125872628 lineto
19.94988975366804 -227.8041974813235 lineto
21.94487872903484 -228.5108827910047 lineto
23.939867704401646 -229.12396851630638 lineto
25.934856679768448 -229.64345465722855 lineto
27.929845655135253 -230.06934121377122 lineto
29.92483463050206 -230.40162818593438 lineto
31.91982360586886 -230.64029445467824 lineto
33.914812581235665 -230.7853822580824 lineto
35.90980155660247 -230.83684935806727 lineto
37.90479053196927 -230.7947168736726 lineto
39.89977950733608 -230.65896368585865 lineto
41.89476848270288 -230.42963203270497 lineto
43.88975745806968 -230.106679676132 lineto
45.88474643343649 -229.69012773517952 lineto
47.87973540880329 -229.17999732888734 lineto
49.874724384170094 -228.57622510013604 lineto
51.869713359536895 -227.87887440604504 lineto
53.864702334903704 -227.08792412757455 lineto
55.859691310270506 -226.20335314568476 lineto
57.85468028563731 -225.22518257941545 lineto
59.84966926100412 -224.15341242876661 lineto
61.84465823637092 -222.9880426937383 lineto
63.83964721173772 -221.72907337433045 lineto
65.83463618710452 -220.37648335150334 lineto
67.82962516247133 -218.93029374429668 lineto
69.82461413783814 -217.39052567175034 lineto
71.81960311320493 -215.7571368957847 lineto
73.81459208857174 -214.03012741639972 lineto
75.80958106393854 -212.20953947167507 lineto
77.80457003930535 -210.29533082353112 lineto
79.79955901467216 -208.28754371004743 lineto
81.79454799003895 -206.18613589314444 lineto
83.78953696540576 -203.99112849186196 lineto
85.78452594077257 -201.70250038716017 lineto
87.77951491613936 -199.32029381711868 lineto
89.77450389150617 -196.84446654365786 lineto
91.76949286687298 -194.27506080485736 lineto
93.76448184223977 -191.61203436263756 lineto
95.75947081760658 -188.85538721699842 lineto
97.75445979297339 -186.0051616060196 lineto
99.74944876834019 -183.06133641066128 lineto
101.744437743707 -180.02389051188365 lineto
103.73942671907379 -176.8928450287265 lineto
105.7344156944406 -173.66819996118986 lineto
107.72940466980741 -170.3499553092737 lineto
109.7243936451742 -166.93810051345812 lineto
111.71938262054101 -163.43264613326306 lineto
113.71437159590782 -159.8335921686885 lineto
115.70936057127462 -156.14092806021452 lineto
117.70434954664142 -152.35466436736104 lineto
119.69933852200823 -148.47480109012804 lineto
121.69432749737503 -144.50132766899566 lineto
123.68931647274184 -140.43425466348376 lineto
125.68430544810865 -136.27357151407244 lineto
127.67929442347544 -132.01929933980153 lineto
129.67428339884225 -127.67140646211134 lineto
131.66927237420904 -123.22992455956151 lineto
133.66426134957587 -118.69483251311229 lineto
135.65925032494266 -114.06614088228355 lineto
137.65423930030946 -109.34383910755541 lineto
139.64922827567628 -104.52793774844777 lineto
141.64421725104307 -99.61843680496062 lineto
143.63920622640987 -94.61533627709396 lineto
145.6341952017767 -89.5186256053279 lineto
147.6291841771435 -84.32831006942239 lineto
149.62417315251028 -79.04438966937741 lineto
151.61916212787708 -73.66686968495293 lineto
153.6141511032439 -68.19575011614894 lineto
155.6091400786107 -62.63102040344556 lineto
157.6041290539775 -56.97269110636267 lineto
159.5991180293443 -51.220756945140316 lineto
161.5941070047111 -45.37522319953846 lineto
163.5890959800779 -39.43608458979715 lineto
165.58408495544472 -33.403341115916376 lineto
167.57907393081152 -27.27699541777613 lineto
169.5740629061783 -21.057046175436415 lineto
171.56905188154514 -14.74349338889723 lineto
173.56404085691193 -8.336337718128572 lineto
175.55902983227872 -1.835578668152943 lineto
177.55401880764555 4.758783596037157 lineto
stroke
newpath
1.0 0.0 0.0 setrgbcolor
2.0 setlinewidth
10.0 setmiterlimit
1 setlinejoin
1 setlinecap
[ ] 0 setdash
newpath
5.211841117218425 -232.87035946202346 moveto
5.211841117218425 -236.67381405327154 lineto
4.408979700302516 -236.67381405327154 lineto
4.408979700302516 -232.87035946202346 lineto
3.7845319315901427 -232.87035946202346 lineto
3.7845319315901427 -232.270240827157 lineto
4.408979700302516 -232.270240827157 lineto
4.408979700302516 -231.7431095938284 lineto
4.408979700302516 -230.69425357010078 4.887452680198876 -230.1698256051245 5.844398597212778 -230.1698256051245 curveto
6.112019077493792 -230.1698256051245 6.416133247667742 -230.21442901850466 6.756741116435402 -230.30363584127716 curveto
6.756741116435402 -230.9361933212715 lineto
6.3972105722194925 -230.82536059711472 6.109315829201578 -230.76994423999093 5.893056864904651 -230.76994423999093 curveto
5.6308428589727475 -230.76994423999093 5.451753407880312 -230.83279450429936 5.35578849247355 -230.95849502729695 curveto
5.259823572776822 -231.0841955559138 5.211841117218425 -231.31734975659998 5.211841117218425 -231.65795762536763 curveto
5.211841117218425 -232.270240827157 lineto
6.310706995926563 -232.270240827157 lineto
6.310706995926563 -232.87035946202346 lineto
closepath
fill
newpath
0.0 0.0 1.0 setrgbcolor
2.0 setlinewidth
10.0 setmiterlimit
1 setlinejoin
0 setlinecap
[ 2.0 3.0 ] 0 setdash
newpath
-3.460143480310988 -60.75821791968154 moveto
258.8187323272619 -60.75821791968154 lineto
stroke
newpath
0.0 0.0 1.0 setrgbcolor
0.0 0.0 1.0 setrgbcolor
2.0 setlinewidth
10.0 setmiterlimit
1 setlinejoin
0 setlinecap
[ 2.0 3.0 ] 0 setdash
newpath
23.237025399993485 -71.00862010554717 moveto
26.967492589703767 -64.84523953124321 lineto
26.967492589703767 -64.73711004426099 27.02155733319488 -64.68304530560364 27.129686815343344 -64.68304530560364 curveto
27.237816302325573 -64.68304530560364 27.291881040982922 -64.73711004909475 27.291881040982922 -64.84523953124321 curveto
27.40001052796515 -64.84523953124321 27.4540752666225 -64.89930427473432 27.4540752666225 -65.00743375688279 curveto
28.10285216918081 -71.4952027824659 lineto
28.10285216918081 -71.60333226944813 28.10285216918081 -71.71146175159659 28.10285216918081 -71.81959123374506 curveto
28.10285216918081 -71.81959123374506 lineto
28.10285216918081 -71.81959123374506 lineto
28.10285216918081 -71.81959123374506 lineto
28.10285216918081 -71.81959123374506 lineto
28.10285216918081 -71.81959123374506 lineto
28.21098165616304 -71.81959123374506 28.42724062529373 -71.81959123374506 28.75162907173912 -71.81959123374506 curveto
28.85975855872135 -71.81959123374506 28.9138232973787 -71.87365597723617 28.9138232973787 -71.98178545938462 curveto
28.9138232973787 -72.08991494636686 28.859758553887584 -72.1439796850242 28.75162907173912 -72.1439796850242 curveto
27.616269492262077 -72.1439796850242 lineto
27.616269492262077 -72.1439796850242 lineto
26.318715687145456 -72.1439796850242 lineto
26.318715687145456 -72.1439796850242 lineto
26.210586200163227 -72.1439796850242 26.15652146150588 -72.0899149415331 26.15652146150588 -71.98178545938462 curveto
26.15652146150588 -71.8736559724024 26.210586204996993 -71.81959123374506 26.318715687145456 -71.81959123374506 curveto
26.859363122056596 -71.81959123374506 27.129686815343344 -71.71146174676282 27.129686815343344 -71.4952027824659 curveto
27.129686815343344 -71.4952027824659 27.07562207185223 -70.90049060406365 26.967492589703767 -69.71106630043055 curveto
24.372384979470528 -69.71106630043055 lineto
23.56141385127264 -71.00862010554717 lineto
23.45328436429041 -71.22487907951162 23.399219625633062 -71.38707330031743 23.399219625633062 -71.4952027824659 curveto
23.399219625633062 -71.71146175643035 23.561413856106405 -71.81959123374506 23.885802302551795 -71.81959123374506 curveto
23.993931789534024 -71.81959123374506 24.047996528191373 -71.87365597723617 24.047996528191373 -71.98178545938462 curveto
24.047996528191373 -72.08991494636686 23.99393178470026 -72.1439796850242 23.885802302551795 -72.1439796850242 curveto
22.91263694871433 -72.1439796850242 lineto
22.91263694871433 -72.1439796850242 lineto
21.939471594876863 -72.1439796850242 lineto
21.939471594876863 -72.1439796850242 lineto
21.831342107894635 -72.1439796850242 21.777277369237286 -72.0899149415331 21.777277369237286 -71.98178545938462 curveto
21.777277369237286 -71.8736559724024 21.8313421127284 -71.81959123374506 21.939471594876863 -71.81959123374506 curveto
21.939471594876863 -71.81959123374506 lineto
22.10166582051644 -71.81959123374506 lineto
22.534183768445352 -71.81959123374506 22.85857221005698 -71.65739700327171 23.074831174353907 -71.33300855682631 curveto
23.182960661336136 -71.22487906984409 23.237025399993485 -71.11674958769564 23.237025399993485 -71.00862010554717 curveto
closepath
24.534579205110106 -69.38667784915138 moveto
26.967492589703767 -69.38667784915138 lineto
26.64310413842461 -65.98059911072026 lineto
24.534579205110106 -69.38667784915138 lineto
closepath
fill
newpath
0.0 0.0 1.0 setrgbcolor
grestore
grestore
showpage

%%EOF