%!PS
%%BoundingBox: -229 -228 228 228 
%%HiResBoundingBox: -228.27246 -227.02246 227.02246 227.02246 
%%Creator: MetaPost 2.00
%%CreationDate: 2021.11.30:1131
%%Pages: 1
%*Font: cmsy10 9.96265 9.96265 00:8
%*Font: cmr10 9.96265 9.96265 31:f00800000000a0045
%*Font: cmmi10 9.96265 9.96265 78:c
%%BeginProlog
%%EndProlog
%%Page: 1 1
 1 0 0 setrgbcolor 0 3 dtransform truncate idtransform setlinewidth pop
 [] 0 setdash 1 setlinecap 1 setlinejoin 10 setmiterlimit
newpath -226.77246 -62.29945 moveto
-222.23674 -62.1216 lineto
-217.701 -61.93681 lineto
-216.18887 -61.87384 -214.67743 -61.81017 -213.16528 -61.74442 curveto
-211.65314 -61.67868 -210.1417 -61.61224 -208.62956 -61.54373 curveto
-207.11742 -61.47522 -205.60597 -61.406 -204.09383 -61.33473 curveto
-199.5581 -61.11673 lineto
-198.04596 -61.04268 -196.53452 -60.96655 -195.02238 -60.88904 curveto
-193.51024 -60.81154 -191.9988 -60.73195 -190.48665 -60.65097 curveto
-188.97452 -60.57 -187.46306 -60.48695 -185.95093 -60.40184 curveto
-184.43878 -60.31671 -182.92665 -60.23021 -181.4152 -60.14093 curveto
-179.90306 -60.05165 -178.39091 -59.961 -176.87947 -59.86757 curveto
-175.36734 -59.77414 -173.8552 -59.67863 -172.34375 -59.58105 curveto
-170.8316 -59.48347 -169.31947 -59.38313 -167.80803 -59.28001 curveto
-166.29588 -59.1769 -164.78374 -59.0717 -163.2723 -58.96306 curveto
-161.76016 -58.8544 -160.24802 -58.74367 -158.73657 -58.62949 curveto
-157.22443 -58.51529 -155.7123 -58.39833 -154.20085 -58.27792 curveto
-152.6887 -58.1575 -151.17656 -58.03363 -149.66512 -57.90628 curveto
-148.15298 -57.77895 -146.64084 -57.64815 -145.1294 -57.51389 curveto
-143.61725 -57.37964 -142.10512 -57.24123 -140.59367 -57.09866 curveto
-139.08153 -56.9561 -137.56938 -56.80939 -136.05794 -56.65851 curveto
-134.5458 -56.50764 -133.03366 -56.35124 -131.52222 -56.19069 curveto
-130.01007 -56.03012 -128.49794 -55.86403 -126.98648 -55.6931 curveto
-125.47366 -55.52147 -123.9622 -55.34499 -122.45076 -55.16298 curveto
-120.93793 -54.98029 -119.42648 -54.79204 -117.91504 -54.59758 curveto
-116.4022 -54.40242 -114.89006 -54.20102 -113.3793 -53.99272 curveto
-111.86649 -53.78372 -110.35434 -53.5678 -108.84358 -53.34427 curveto
-107.33075 -53.12004 -105.81862 -52.88889 -104.30786 -52.64874 curveto
-102.79433 -52.40791 -101.28288 -52.15877 -99.77213 -51.89995 curveto
-98.2586 -51.64043 -96.74648 -51.3719 -95.2364 -51.093 curveto
-93.72218 -50.81273 -92.21074 -50.52206 -90.70068 -50.22032 curveto
-89.18646 -49.9172 -87.67433 -49.60301 -86.16495 -49.27568 curveto
-84.65004 -48.94695 -83.13791 -48.60576 -81.62923 -48.24936 curveto
-80.11363 -47.89157 -78.60149 -47.51993 -77.0935 -47.13168 curveto
-75.57721 -46.74136 -74.06506 -46.33583 -72.55777 -45.9123 curveto
-71.04079 -45.48598 -69.52795 -45.04169 -68.02205 -44.578 curveto
-66.50368 -44.11087 -64.99155 -43.62366 -63.48633 -43.115 curveto
-61.96657 -42.6015 -60.45444 -42.06584 -58.95059 -41.50667 curveto
-57.42946 -40.94057 -55.91663 -40.35094 -54.41487 -39.73502 curveto
-52.89166 -39.11078 -51.37952 -38.45955 -49.87915 -37.78064 curveto
-48.35316 -37.08998 -46.84102 -36.37024 -45.34341 -35.62143 curveto
-43.81537 -34.8574 -42.30322 -34.06154 -40.8077 -33.23523 curveto
-39.27687 -32.38954 -37.76472 -31.51132 -36.27197 -30.60059 curveto
-34.73906 -29.66562 -33.22693 -28.69673 -31.73624 -27.69533 curveto
-30.20126 -26.66487 -28.68982 -25.60118 -27.20052 -24.50566 curveto
-25.66415 -23.37622 -24.1534 -22.21356 -22.6648 -21.02185 curveto
-21.12912 -19.79276 -19.61836 -18.53392 -18.12906 -17.24947 curveto
-16.59547 -15.92694 -15.08472 -14.57813 -13.59334 -13.20924 curveto
-12.0639 -11.80576 -10.55383 -10.38081 -9.05762 -8.94135 curveto
-7.5337 -7.47557 -6.02434 -5.99527 -4.52188 -4.50735 curveto
-3.0049 -3.0049 -1.49553 -1.49553 0.01384 0.01384 curveto
1.52321 1.52321 3.03258 3.03328 4.54956 4.53503 curveto
6.05202 6.02295 7.56139 7.50325 9.0853 8.96834 curveto
10.58151 10.40712 12.09158 11.83136 13.62102 13.23416 curveto
15.11308 14.60236 16.62315 15.95117 18.15674 17.273 curveto
19.64604 18.55675 21.1568 19.8156 22.69247 21.04399 curveto
24.18108 22.23502 25.69254 23.39629 27.2282 24.52573 curveto
28.7175 25.62056 30.22894 26.68425 31.76392 27.71402 curveto
33.25461 28.71474 34.76675 29.68292 36.29965 30.61719 curveto
37.7924 31.52724 39.30455 32.40546 40.83537 33.25046 curveto
42.3309 34.07608 43.84305 34.87125 45.37111 35.63528 curveto
46.86871 36.38408 48.38084 37.10312 49.90683 37.7931 curveto
51.4072 38.47202 52.91934 39.12254 54.44255 39.74678 curveto
55.9443 40.36201 57.45714 40.95164 58.97829 41.51704 curveto
60.48212 42.07623 61.99425 42.61119 63.514 43.1247 curveto
65.01923 43.63335 66.53136 44.11987 68.04973 44.587 curveto
69.55565 45.04999 71.06848 45.49359 72.58546 45.9199 curveto
74.09276 46.34274 75.60489 46.74898 77.12119 47.13861 curveto
78.62917 47.52615 80.14131 47.89848 81.6569 48.25558 curveto
83.16559 48.6113 84.67773 48.95248 86.19264 49.2812 curveto
87.70201 49.60855 89.21414 49.92274 90.72836 50.22586 curveto
92.23842 50.5276 93.74988 50.81827 95.26408 51.09785 curveto
96.77415 51.37675 98.28629 51.64597 99.79982 51.90479 curveto
101.30988 52.16362 102.82202 52.41206 104.33554 52.6529 curveto
105.8463 52.89304 107.35843 53.12488 108.87126 53.34842 curveto
110.38202 53.57195 111.89417 53.78787 113.407 53.99619 curveto
114.91774 54.20448 116.42989 54.40587 117.94272 54.60103 curveto
119.45416 54.7955 120.9656 54.98373 122.47844 55.16644 curveto
123.9899 55.34915 125.50134 55.52562 127.01418 55.69656 curveto
128.52562 55.8675 130.03775 56.0329 131.5499 56.19345 curveto
133.06134 56.354 134.57349 56.50972 136.08562 56.66129 curveto
137.59708 56.81215 139.1092 56.95886 140.62135 57.10143 curveto
142.1328 57.24399 143.64493 57.3824 145.15707 57.51666 curveto
146.66852 57.65092 148.18066 57.78172 149.6928 57.90906 curveto
151.20425 58.03639 152.71638 58.15958 154.22853 58.28 curveto
155.73997 58.40042 157.2521 58.51736 158.76425 58.63156 curveto
160.2757 58.74574 161.78784 58.85648 163.29997 58.96513 curveto
164.81143 59.07378 166.32356 59.17897 167.83571 59.28209 curveto
169.34715 59.38521 170.8593 59.48555 172.37143 59.58313 curveto
173.88287 59.68071 175.39502 59.77621 176.90715 59.86964 curveto
178.41861 59.96307 179.93074 60.05443 181.44289 60.143 curveto
182.95433 60.2316 184.46648 60.3181 185.9786 60.40321 curveto
187.49075 60.48834 189.0022 60.5714 190.51433 60.65236 curveto
192.02647 60.73334 193.53792 60.81291 195.05006 60.89043 curveto
196.5622 60.96794 198.07365 61.04407 199.58578 61.11812 curveto
204.1215 61.3361 lineto
205.63365 61.4074 207.1451 61.4766 208.65724 61.5451 curveto
210.16937 61.61362 211.68083 61.68005 213.19296 61.7458 curveto
214.70511 61.81155 216.21655 61.87521 217.72868 61.9382 curveto
222.26442 62.12297 lineto stroke
 0 0 1 setrgbcolor 0 2 dtransform truncate idtransform setlinewidth pop
newpath -61.22884 -202.0758 moveto
-61.0849 -199.05151 -60.93333 -196.02794 -60.77486 -193.00435 curveto
-60.62952 -190.2382 -60.47865 -187.47206 -60.32156 -184.70592 curveto
-60.17622 -182.15016 -60.02536 -179.5951 -59.86826 -177.04002 curveto
-59.72293 -174.68013 -59.57207 -172.3209 -59.41496 -169.9617 curveto
-59.26894 -167.77065 -59.11807 -165.5796 -58.96167 -163.38925 curveto
-58.81564 -161.34839 -58.66478 -159.30751 -58.50838 -157.26733 curveto
-58.36235 -155.36557 -58.21149 -153.4645 -58.05508 -151.56412 curveto
-57.90906 -149.78346 -57.7582 -148.0028 -57.60178 -146.22284 curveto
-57.45576 -144.55637 -57.3042 -142.88991 -57.14848 -141.22412 curveto
-57.00177 -139.65593 -56.8509 -138.08774 -56.69519 -136.52023 curveto
-56.54848 -135.0427 -56.39761 -133.56586 -56.2419 -132.089 curveto
-56.09518 -130.69728 -55.94362 -129.30556 -55.7886 -127.91454 curveto
-55.64119 -126.59825 -55.49033 -125.28265 -55.3353 -123.96774 curveto
-55.1879 -122.72136 -55.03703 -121.47566 -54.882 -120.22997 curveto
-54.7346 -119.04793 -54.58374 -117.8659 -54.42871 -116.68457 curveto
-54.28131 -115.56206 -54.13043 -114.44023 -53.97542 -113.3191 curveto
-53.828 -112.25056 -53.67714 -111.18204 -53.52213 -110.1142 curveto
-53.37471 -109.09756 -53.22316 -108.08163 -53.06883 -107.06569 curveto
-52.92073 -106.09474 -52.77055 -105.1238 -52.61552 -104.15353 curveto
-52.46812 -103.22687 -52.31656 -102.3009 -52.16223 -101.37492 curveto
-52.01413 -100.48772 -51.86327 -99.60051 -51.70894 -98.71397 curveto
-51.56084 -97.86482 -51.40997 -97.01637 -51.25565 -96.16861 curveto
-51.10754 -95.35475 -50.95668 -94.5409 -50.80235 -93.72772 curveto
-50.65425 -92.94708 -50.50337 -92.16714 -50.34904 -91.3879 curveto
-50.20096 -90.6384 -50.0494 -89.8889 -49.89575 -89.14009 curveto
-49.74765 -88.41829 -49.59679 -87.69647 -49.44246 -86.97604 curveto
-49.29436 -86.2819 -49.14279 -85.58847 -48.98917 -84.89572 curveto
-48.84106 -84.2272 -48.6895 -83.56006 -48.53587 -82.89291 curveto
-48.38707 -82.24861 -48.2362 -81.60431 -48.08257 -80.9614 curveto
-47.93378 -80.33923 -47.78291 -79.71709 -47.62927 -79.09631 curveto
-47.48048 -78.4956 -47.32962 -77.8956 -47.17598 -77.29628 curveto
-47.02719 -76.71495 -46.87633 -76.13501 -46.72269 -75.55507 curveto
-46.5739 -74.99312 -46.42302 -74.43185 -46.2694 -73.87129 curveto
-46.12059 -73.32735 -45.96973 -72.78477 -45.81609 -72.2422 curveto
-45.6673 -71.71555 -45.51643 -71.18959 -45.3628 -70.6643 curveto
-45.214 -70.15427 -45.06244 -69.64423 -44.9095 -69.13556 curveto
-44.76001 -68.64006 -44.60915 -68.14523 -44.4562 -67.65111 curveto
-44.30672 -67.16943 -44.15585 -66.68915 -44.00291 -66.20886 curveto
-43.85411 -65.74242 -43.70256 -65.27597 -43.5496 -64.81091 curveto
-43.40013 -64.35693 -43.24927 -63.90363 -43.09631 -63.45103 curveto
-42.94684 -63.0102 -42.79596 -62.56935 -42.64302 -62.1299 curveto
-42.49355 -61.70013 -42.34267 -61.27174 -42.18973 -60.84337 curveto
-42.04024 -60.42537 -41.88937 -60.00806 -41.73643 -59.59145 curveto
-41.58694 -59.18382 -41.43608 -58.77689 -41.28314 -58.37065 curveto
-41.13365 -57.97342 -40.98279 -57.57756 -40.82983 -57.1817 curveto
-40.68036 -56.79416 -40.52948 -56.40799 -40.37654 -56.02182 curveto
-40.22707 -55.64465 -40.07619 -55.26749 -39.92325 -54.8917 curveto
-39.77376 -54.52283 -39.6229 -54.15466 -39.46996 -53.78717 curveto
-39.32047 -53.4273 -39.1696 -53.06813 -39.01666 -52.70966 curveto
-38.86717 -52.35808 -38.71631 -52.00652 -38.56335 -51.65634 curveto
-38.41388 -51.3124 -38.26231 -50.96913 -38.11006 -50.62657 curveto
-37.96059 -50.29022 -37.80971 -49.95457 -37.65677 -49.61963 curveto
-37.50728 -49.2909 -37.35573 -48.96217 -37.20348 -48.63483 curveto
-36.75018 -47.67079 lineto
-36.6007 -47.35522 -36.44983 -47.03964 -36.29688 -46.72545 curveto
-36.1474 -46.4168 -35.99583 -46.10953 -35.84358 -45.80225 curveto
-35.39029 -44.89497 lineto
-34.937 -44.00636 lineto
-34.4837 -43.13368 lineto
-34.0304 -42.279 lineto
-33.5771 -41.43954 lineto
-33.12381 -40.616 lineto
-32.67052 -39.8056 lineto
-32.21722 -39.01112 lineto
-31.76392 -38.22841 lineto
-31.31062 -37.45953 lineto
-30.85733 -36.70381 lineto
-30.40404 -35.95915 lineto
-29.95074 -35.22627 lineto
-29.49745 -34.50584 lineto
-29.04414 -33.79579 lineto
-28.59085 -33.09544 lineto
-28.13756 -32.40614 lineto
-27.68427 -31.72655 lineto
-27.23097 -31.05525 lineto
-26.77766 -30.39435 lineto
-26.32437 -29.74174 lineto
-25.87108 -29.09813 lineto
-25.41779 -28.46144 lineto
-24.9645 -27.83444 lineto
-24.51118 -27.21367 lineto
-24.05789 -26.6012 lineto
-23.6046 -25.99495 lineto
-23.1513 -25.39633 lineto
-22.69801 -24.80392 lineto
-22.2447 -24.21915 lineto
-21.79141 -23.6385 lineto
-21.33812 -23.06549 lineto
-20.88483 -22.498 lineto
-20.43153 -21.93605 lineto
-19.97823 -21.37964 lineto
-19.52493 -20.82808 lineto
-19.07164 -20.28136 lineto
-18.61835 -19.74017 lineto
-18.16505 -19.20313 lineto
-17.71176 -18.67024 lineto
-17.25845 -18.1429 lineto
-16.80516 -17.61902 lineto
-16.35187 -17.09859 lineto
-15.89857 -16.58301 lineto
-15.44528 -16.07158 lineto
-14.99197 -15.56293 lineto
-14.53868 -15.05772 lineto
-14.08539 -14.55598 lineto
-13.6321 -14.0584 lineto
-13.1788 -13.5622 lineto
-12.7255 -13.07083 lineto
-12.2722 -12.58086 lineto
-11.81891 -12.09366 lineto
-11.36562 -11.60991 lineto
-10.91232 -11.12755 lineto
-10.45901 -10.64795 lineto
-10.00572 -10.17113 lineto
-9.55243 -9.69638 lineto
-9.09914 -9.223 lineto
-8.64584 -8.75241 lineto
-8.19254 -8.2832 lineto
-7.73924 -7.81537 lineto
-7.28595 -7.34962 lineto
-6.83266 -6.88525 lineto
-6.37936 -6.42227 lineto
-5.92607 -5.95998 lineto
-5.47276 -5.49976 lineto
-5.01947 -5.04024 lineto
-4.56618 -4.58209 lineto
-4.11288 -4.12395 lineto
-3.65959 -3.66719 lineto
-3.20628 -3.21182 lineto
-2.75299 -2.75645 lineto
-2.2997 -2.30177 lineto
-1.8464 -1.84709 lineto
-1.39311 -1.3938 lineto
-0.9398 -0.9398 lineto
-0.48651 -0.48651 lineto
-0.03322 -0.03322 lineto
0.42007 0.42007 lineto
0.87337 0.87337 lineto
1.32668 1.32736 lineto
1.77997 1.78065 lineto
2.23326 2.23534 lineto
2.68655 2.69002 lineto
3.13985 3.1447 lineto
3.59315 3.60075 lineto
4.04645 4.05682 lineto
4.49974 4.51427 lineto
4.95303 4.9731 lineto
5.40633 5.43263 lineto
5.85962 5.89215 lineto
6.31293 6.35445 lineto
6.76622 6.81674 lineto
7.21951 7.28111 lineto
7.6728 7.74686 lineto
8.1261 8.21399 lineto
8.5794 8.68321 lineto
9.0327 9.15381 lineto
9.486 9.62648 lineto
9.93929 10.10123 lineto
10.39258 10.57875 lineto
10.84589 11.05765 lineto
11.29918 11.53932 lineto
11.75247 12.02307 lineto
12.20576 12.50958 lineto
12.65906 12.99817 lineto
13.11237 13.49022 lineto
13.56566 13.98505 lineto
14.01895 14.48332 lineto
14.47224 14.98436 lineto
14.92554 15.48888 lineto
15.37885 15.99684 lineto
15.83214 16.50827 lineto
16.28543 17.02385 lineto
16.73872 17.5429 lineto
17.19202 18.0654 lineto
17.64531 18.59343 lineto
18.09862 19.12424 lineto
18.55191 19.66127 lineto
19.0052 20.20108 lineto
19.4585 20.7471 lineto
19.91179 21.29868 lineto
20.3651 21.8537 lineto
20.81839 22.41565 lineto
21.27168 22.98244 lineto
21.72498 23.55476 lineto
22.17827 24.13333 lineto
22.63158 24.71811 lineto
23.08487 25.30844 lineto
23.53816 25.90776 lineto
23.99146 26.51192 lineto
24.44475 27.1237 lineto
24.89806 27.74309 lineto
25.35135 28.3694 lineto
25.80464 29.00401 lineto
26.25793 29.64693 lineto
26.71123 30.29816 lineto
27.16454 30.95837 lineto
27.61783 31.6276 lineto
28.07112 32.3058 lineto
28.52441 32.9937 lineto
28.9777 33.69267 lineto
29.431 34.40134 lineto
29.88431 35.12039 lineto
30.3376 35.8512 lineto
30.7909 36.59377 lineto
31.24419 37.34811 lineto
31.69748 38.1156 lineto
32.15079 38.89555 lineto
32.60408 39.68864 lineto
33.05737 40.49696 lineto
33.51067 41.31773 lineto
33.96396 42.15512 lineto
34.41727 43.00842 lineto
34.87056 43.87766 lineto
35.32385 44.76347 lineto
35.77715 45.668 lineto
36.23044 46.58981 lineto
36.38269 46.90262 36.53426 47.21681 36.68375 47.531 curveto
36.836 47.85074 36.98755 48.17116 37.13704 48.49226 curveto
37.28929 48.81892 37.44084 49.14626 37.59033 49.47429 curveto
37.74258 49.80786 37.89415 50.14282 38.04362 50.47777 curveto
38.19588 50.81895 38.34744 51.16083 38.49692 51.5034 curveto
38.64987 51.85289 38.80074 52.20238 38.95023 52.55324 curveto
39.10316 52.91104 39.25403 53.26883 39.40352 53.628 curveto
39.55577 53.9941 39.70732 54.3602 39.85681 54.72768 curveto
40.00975 55.10277 40.16063 55.47925 40.3101 55.85573 curveto
40.46304 56.23982 40.61392 56.62392 40.7634 57.00938 curveto
40.91635 57.40385 41.06721 57.79832 41.21669 58.19418 curveto
41.36964 58.59903 41.52051 59.00458 41.67 59.41013 curveto
41.82294 59.82466 41.9738 60.24059 42.12329 60.65651 curveto
42.27623 61.08351 42.4271 61.5112 42.57658 61.93958 curveto
42.72952 62.37766 42.8804 62.81572 43.02988 63.25517 curveto
43.18283 63.7057 43.3337 64.15692 43.48317 64.60884 curveto
43.63612 65.07251 43.78699 65.53688 43.93648 66.00194 curveto
44.08942 66.47946 44.24028 66.95767 44.38977 67.43657 curveto
44.54271 67.92793 44.69427 68.42067 44.84306 68.91342 curveto
44.9967 69.42 45.14757 69.92796 45.29636 70.43594 curveto
45.44931 70.95914 45.60086 71.4837 45.74965 72.00829 curveto
45.9026 72.54808 46.05415 73.08858 46.20296 73.62976 curveto
46.35658 74.18756 46.50746 74.74536 46.65625 75.30453 curveto
46.80988 75.88103 46.96075 76.4589 47.10954 77.03676 curveto
47.26318 77.6333 47.41405 78.23055 47.56284 78.82848 curveto
47.71648 79.4458 47.86734 80.0645 48.01613 80.68318 curveto
48.16977 81.32333 48.32063 81.96487 48.46944 82.60641 curveto
48.62306 83.2701 48.77394 83.93446 48.92273 84.59953 curveto
49.07635 85.28812 49.22792 85.9774 49.37602 86.66739 curveto
49.52966 87.38297 49.68121 88.09924 49.82932 88.81621 curveto
49.98364 89.56087 50.1345 90.30621 50.28261 91.05225 curveto
50.43694 91.82803 50.58781 92.60452 50.73592 93.38101 curveto
50.89024 94.18794 51.0411 94.99557 51.18921 95.8039 curveto
51.34354 96.64682 51.4944 97.49043 51.6425 98.33473 curveto
51.79683 99.21434 51.9477 100.09464 52.0958 100.97493 curveto
52.25012 101.89536 52.40099 102.81648 52.54909 103.7383 curveto
52.70341 104.70094 52.85498 105.66359 53.00238 106.62694 curveto
53.15741 107.63664 53.30827 108.64703 53.45569 109.65813 curveto
53.6107 110.71835 53.76157 111.7786 53.90898 112.83951 curveto
54.064 113.95302 54.21487 115.06723 54.36227 116.18213 curveto
54.51729 117.35378 54.66817 118.52542 54.81557 119.69777 curveto
54.9706 120.93446 55.12146 122.17117 55.26886 123.40857 curveto
55.42389 124.71378 55.57475 126.019 55.72217 127.3249 curveto
55.87787 128.70486 56.02875 130.08551 56.17546 131.46684 curveto
56.33118 132.92847 56.48204 134.39078 56.62875 135.85379 curveto
56.78447 137.40675 56.93533 138.95973 57.08205 140.51338 curveto
57.23776 142.1667 57.38863 143.82072 57.53534 145.47542 curveto
57.69106 147.2367 57.84192 148.99867 57.98865 150.76064 curveto
58.14505 152.64233 58.29591 154.52472 58.44194 156.40712 curveto
58.59834 158.42445 58.7492 160.44179 58.89523 162.45982 curveto
59.05164 164.62804 59.2025 166.79623 59.34853 168.96513 curveto
59.50563 171.29875 59.6565 173.63235 59.80182 175.96666 curveto
59.95892 178.4892 60.10979 181.01242 60.25513 183.53566 curveto
60.41222 186.27274 60.56308 189.01118 60.70842 191.74896 curveto
60.86621 194.72618 61.01707 197.7034 61.16171 200.6813 curveto stroke
 0 0 0 setrgbcolor 0 1.2 dtransform truncate idtransform setlinewidth pop
newpath -181.41797 -181.41797 moveto
181.41797 181.41797 lineto stroke
 0.5 0 dtransform exch truncate exch idtransform pop setlinewidth
newpath -181.41797 -4.53572 moveto
-181.41797 4.53572 lineto stroke
-189.44347 -13.95612 moveto
(\000) cmsy10 9.96265 fshow
-181.69476 -13.95612 moveto
(4) cmr10 9.96265 fshow
newpath -136.06348 -4.53572 moveto
-136.06348 4.53572 lineto stroke
-144.08897 -13.95612 moveto
(\000) cmsy10 9.96265 fshow
-136.34027 -13.95612 moveto
(3) cmr10 9.96265 fshow
newpath -90.70898 -4.53572 moveto
-90.70898 4.53572 lineto stroke
-98.73448 -13.95612 moveto
(\000) cmsy10 9.96265 fshow
-90.98578 -13.95612 moveto
(2) cmr10 9.96265 fshow
newpath -45.35449 -4.53572 moveto
-45.35449 4.53572 lineto stroke
-53.37999 -13.95612 moveto
(\000) cmsy10 9.96265 fshow
-45.63129 -13.95612 moveto
(1) cmr10 9.96265 fshow
newpath 45.35449 -4.53572 moveto
45.35449 4.53572 lineto stroke
41.20338 -13.95612 moveto
(1) cmr10 9.96265 fshow
newpath 90.70898 -4.53572 moveto
90.70898 4.53572 lineto stroke
86.55788 -13.95612 moveto
(2) cmr10 9.96265 fshow
newpath 136.06348 -4.53572 moveto
136.06348 4.53572 lineto stroke
131.91237 -13.95612 moveto
(3) cmr10 9.96265 fshow
newpath 181.41797 -4.53572 moveto
181.41797 4.53572 lineto stroke
177.26686 -13.95612 moveto
(4) cmr10 9.96265 fshow
 0 0.5 dtransform truncate idtransform setlinewidth pop
newpath -4.53572 -181.41797 moveto
4.53572 -181.41797 lineto stroke
7.53572 -184.21307 moveto
(\000) cmsy10 9.96265 fshow
15.28442 -184.21307 moveto
(4) cmr10 9.96265 fshow
newpath -4.53572 -136.06348 moveto
4.53572 -136.06348 lineto stroke
7.53572 -138.85858 moveto
(\000) cmsy10 9.96265 fshow
15.28442 -138.85858 moveto
(3) cmr10 9.96265 fshow
newpath -4.53572 -90.70898 moveto
4.53572 -90.70898 lineto stroke
7.53572 -93.50409 moveto
(\000) cmsy10 9.96265 fshow
15.28442 -93.50409 moveto
(2) cmr10 9.96265 fshow
newpath -4.53572 -45.35449 moveto
4.53572 -45.35449 lineto stroke
7.53572 -48.1496 moveto
(\000) cmsy10 9.96265 fshow
15.28442 -48.1496 moveto
(1) cmr10 9.96265 fshow
newpath -4.53572 45.35449 moveto
4.53572 45.35449 lineto stroke
7.53572 42.14429 moveto
(1) cmr10 9.96265 fshow
newpath -4.53572 90.70898 moveto
4.53572 90.70898 lineto stroke
7.53572 87.49878 moveto
(2) cmr10 9.96265 fshow
newpath -4.53572 136.06348 moveto
4.53572 136.06348 lineto stroke
7.53572 132.85327 moveto
(3) cmr10 9.96265 fshow
newpath -4.53572 181.41797 moveto
4.53572 181.41797 lineto stroke
7.53572 178.20776 moveto
(4) cmr10 9.96265 fshow
newpath -226.77246 0 moveto
226.77246 0 lineto stroke
newpath 223.07689 -1.53079 moveto
226.77246 0 lineto
223.07689 1.53079 lineto
 closepath
gsave fill grestore stroke
 0.5 0 dtransform exch truncate exch idtransform pop setlinewidth
newpath 0 -226.77246 moveto
0 226.77246 lineto stroke
 0 0.5 dtransform truncate idtransform setlinewidth pop
newpath 1.53079 223.07689 moveto
0 226.77246 lineto
-1.53079 223.07689 lineto
 closepath
gsave fill grestore stroke
183.51796 185.45515 moveto
(y) cmmi10 9.96265 fshow
191.52725 185.45515 moveto
(=) cmr10 9.96265 fshow
202.04326 185.45515 moveto
(x) cmmi10 9.96265 fshow
 1 0 0 setrgbcolor
165.90666 41.94305 moveto
(arctan) cmr10 9.96265 fshow
 0 0 1 setrgbcolor
61.96098 160.31566 moveto
(tan) cmr10 9.96265 fshow
showpage
%%EOF
