%!PS
%%BoundingBox: -18 -24 103 103 
%%HiResBoundingBox: -17.25761 -23.35686 102.29697 102.29697 
%%Creator: MetaPost 2.00
%%CreationDate: 2021.12.28:2211
%%Pages: 1
%*Font: cmr7 6.97385 6.97385 31:c
%*Font: cmr10 9.96265 9.96265 30:c
%%BeginProlog
%%EndProlog
%%Page: 1 1
 1 0 0 setrgbcolor 0 2 dtransform truncate idtransform setlinewidth pop
 [] 0 setdash 1 setlinecap 1 setlinejoin 10 setmiterlimit
newpath 0 0 moveto
0.84993 0.84993 lineto
1.69986 1.69986 lineto
2.54977 2.54977 lineto
3.3997 3.3997 lineto
4.24963 4.24963 lineto
5.09956 5.09956 lineto
5.94948 5.94948 lineto
6.79941 6.79941 lineto
7.64934 7.64934 lineto
8.49927 8.49927 lineto
9.3492 9.3492 lineto
10.19911 10.19911 lineto
11.04904 11.04904 lineto
11.89897 11.89897 lineto
12.7489 12.7489 lineto
13.59882 13.59882 lineto
14.44875 14.44875 lineto
15.29868 15.29868 lineto
16.1486 16.1486 lineto
16.99854 16.99854 lineto
17.84845 17.84845 lineto
18.69838 18.69838 lineto
19.54831 19.54831 lineto
20.39824 20.39824 lineto
21.24815 21.24815 lineto
22.09808 22.09808 lineto
22.94801 22.94801 lineto
23.79794 23.79794 lineto
24.64786 24.64786 lineto
25.49779 25.49779 lineto
26.34772 26.34772 lineto
27.19765 27.19765 lineto
28.04758 28.04758 lineto
28.89749 28.89749 lineto
29.74742 29.74742 lineto
30.59735 30.59735 lineto
31.44728 31.44728 lineto
32.2972 32.2972 lineto
33.14713 33.14713 lineto
33.99706 33.99706 lineto
34.84698 34.84698 lineto
35.69691 35.69691 lineto
36.54683 36.54683 lineto
37.39676 37.39676 lineto
38.24669 38.24669 lineto
39.09662 39.09662 lineto
39.94653 39.94653 lineto
40.79646 40.79646 lineto
41.6464 41.6464 lineto
42.49632 42.49632 lineto stroke
newpath 43.3696 84.18942 moveto
44.22083 83.3382 lineto
45.07076 82.48828 lineto
45.92068 81.63835 lineto
46.7706 80.78842 lineto
47.62053 79.93849 lineto
48.47046 79.08858 lineto
49.32039 78.23865 lineto
50.17032 77.38872 lineto
51.02023 76.53879 lineto
51.87016 75.68886 lineto
52.7201 74.83894 lineto
53.57002 73.98901 lineto
54.41994 73.13908 lineto
55.26987 72.28915 lineto
56.1198 71.43924 lineto
56.96973 70.58931 lineto
57.81966 69.73938 lineto
58.66957 68.88945 lineto
59.5195 68.03952 lineto
60.36943 67.1896 lineto
61.21936 66.33968 lineto
62.06927 65.48975 lineto
62.9192 64.63982 lineto
63.76913 63.7899 lineto
64.61906 62.93997 lineto
65.46898 62.09004 lineto
66.31891 61.24011 lineto
67.16884 60.39018 lineto
68.01877 59.54027 lineto
68.8687 58.69034 lineto
69.71861 57.84041 lineto
70.56854 56.99048 lineto
71.41847 56.14056 lineto
72.2684 55.29063 lineto
73.11832 54.4407 lineto
73.96825 53.59077 lineto
74.81818 52.74084 lineto
75.6681 51.89093 lineto
76.51804 51.041 lineto
77.36795 50.19107 lineto
78.21788 49.34114 lineto
79.06781 48.49123 lineto
79.91774 47.6413 lineto
80.76765 46.79137 lineto
81.61758 45.94144 lineto
82.46751 45.0915 lineto
83.31744 44.2416 lineto
84.16737 43.39166 lineto
85.01729 42.54173 lineto stroke
 0 0 0 setrgbcolor 0.5 0 dtransform exch truncate exch idtransform pop setlinewidth
newpath 42.51968 -8.50446 moveto
42.51968 8.50446 lineto stroke
newpath 85.03935 -8.50446 moveto
85.03935 8.50446 lineto stroke
38.87363 -15.99875 moveto
(1) cmr7 6.97385 fshow
 0 0.3985 dtransform truncate idtransform setlinewidth pop 0 setlinecap
newpath 38.87363 -17.43065 moveto
42.84492 -17.43065 lineto stroke
38.87363 -23.35686 moveto
(2) cmr7 6.97385 fshow
80.88824 -17.92485 moveto
(1) cmr10 9.96265 fshow
 0 0.5 dtransform truncate idtransform setlinewidth pop 1 setlinecap
newpath -8.50446 85.03935 moveto
8.50446 85.03935 lineto stroke
11.50446 81.82915 moveto
(1) cmr10 9.96265 fshow
-10.40219 -8.52039 moveto
(0) cmr10 9.96265 fshow
newpath -17.00761 0 moveto
102.04697 0 lineto stroke
newpath 98.35127 -1.53084 moveto
102.04697 0 lineto
98.35127 1.53084 lineto
 closepath
gsave fill grestore stroke
 0.5 0 dtransform exch truncate exch idtransform pop setlinewidth
newpath 0 -17.00761 moveto
0 102.04697 lineto stroke
 0 0.5 dtransform truncate idtransform setlinewidth pop
newpath 1.53084 98.35127 moveto
0 102.04697 lineto
-1.53084 98.35127 lineto
 closepath
gsave fill grestore stroke
 0.5 0 dtransform exch truncate exch idtransform pop setlinewidth
 [3 3 ] 0 setdash
newpath 42.51968 0 moveto
42.51968 85.03935 lineto stroke
 1 0 0 setrgbcolor 0 4 dtransform truncate idtransform setlinewidth pop
 [] 0 setdash
newpath 42.51968 42.51968 moveto 0 0 rlineto stroke
 0 1 dtransform truncate idtransform setlinewidth pop
newpath 39.9686 89.29158 moveto
41.22523 88.09665 42.51968 86.76575 42.51968 85.03935 curveto
42.51968 83.31296 41.22523 81.98206 39.9686 80.78712 curveto stroke
showpage
%%EOF
