%!PS-Adobe-3.0 EPSF-3.0
%%Creator: EpsGraphics 1.0.0 by Thomas Abeel, http://www.sourceforge.net/epsgraphics/
%%Title: GeoGebra, http://www.geogebra.org/
%%CreationDate: Mon Aug 18 14:10:24 CEST 2014
%%BoundingBox: 0 0 579 559
%%DocumentData: Clean7Bit
%%LanguageLevel: 2
%%DocumentProcessColors: Black
%%ColorUsage: Color
%%Origin: 0 0
%%Pages: 1
%%Page: 1 1
%%EndComments

gsave
0.0 559.0 translate
0.0 0.0 0.0 setrgbcolor
0.0 0.0 0.0 setrgbcolor
gsave
newpath
0.0 -0.0 moveto
579.5029558989698 -0.0 lineto
579.5029558989698 -559.8031387012711 lineto
0.0 -559.8031387012711 lineto
0.0 -0.0 lineto
closepath
clip
newpath
1.0 1.0 1.0 setrgbcolor
newpath
0.0 -0.0 moveto
579.5029558989698 -0.0 lineto
579.5029558989698 -559.8031387012711 lineto
0.0 -559.8031387012711 lineto
0.0 -0.0 lineto
closepath
fill
newpath
0.0 0.0 0.0 setrgbcolor
1.0 setlinewidth
10.0 setmiterlimit
0 setlinejoin
0 setlinecap
[ ] 0 setdash
newpath
77.75394888637908 -3.283302866283115 moveto
77.75394888637908 -559.8031387012711 lineto
stroke
newpath
1.0 setlinewidth
10.0 setmiterlimit
0 setlinejoin
0 setlinecap
[ ] 0 setdash
newpath
78.57477460294986 -1.6416514331415575 moveto
72.8289945869544 -6.56660573256623 lineto
stroke
newpath
1.0 setlinewidth
10.0 setmiterlimit
0 setlinejoin
0 setlinecap
[ ] 0 setdash
newpath
76.9331231698083 -1.6416514331415575 moveto
82.67890318580375 -6.56660573256623 lineto
stroke
newpath
1.0 setlinewidth
10.0 setmiterlimit
0 setlinejoin
0 setlinecap
[ ] 0 setdash
newpath
0.0 -415.8683497657406 moveto
576.2196530326867 -415.8683497657406 lineto
stroke
newpath
1.0 setlinewidth
10.0 setmiterlimit
0 setlinejoin
0 setlinecap
[ ] 0 setdash
newpath
577.8613044658282 -416.6891754823114 moveto
572.9363501664036 -410.94339546631596 lineto
stroke
newpath
1.0 setlinewidth
10.0 setmiterlimit
0 setlinejoin
0 setlinecap
[ ] 0 setdash
newpath
577.8613044658282 -415.04752404916985 moveto
572.9363501664036 -420.7933040651653 lineto
stroke
newpath
1.0 setlinewidth
10.0 setmiterlimit
0 setlinejoin
0 setlinecap
[ ] 0 setdash
newpath
77.75394888637908 -415.8683497657406 moveto
77.75394888637908 -422.43495549830686 lineto
stroke
newpath
1.0 setlinewidth
10.0 setmiterlimit
0 setlinejoin
0 setlinecap
[ ] 0 setdash
newpath
219.48623235094598 -415.8683497657406 moveto
219.48623235094598 -422.43495549830686 lineto
stroke
newpath
1.0 setlinewidth
10.0 setmiterlimit
0 setlinejoin
0 setlinecap
[ ] 0 setdash
newpath
361.2185158155129 -415.8683497657406 moveto
361.2185158155129 -422.43495549830686 lineto
stroke
newpath
1.0 setlinewidth
10.0 setmiterlimit
0 setlinejoin
0 setlinecap
[ ] 0 setdash
newpath
502.9507992800798 -415.8683497657406 moveto
502.9507992800798 -422.43495549830686 lineto
stroke
newpath
1.0 setlinewidth
10.0 setmiterlimit
0 setlinejoin
0 setlinecap
[ ] 0 setdash
newpath
71.18734315381285 -557.600633230308 moveto
77.75394888637908 -557.600633230308 lineto
stroke
newpath
1.0 setlinewidth
10.0 setmiterlimit
0 setlinejoin
0 setlinecap
[ ] 0 setdash
newpath
71.18734315381285 -415.86834976574056 moveto
77.75394888637908 -415.86834976574056 lineto
stroke
newpath
1.0 setlinewidth
10.0 setmiterlimit
0 setlinejoin
0 setlinecap
[ ] 0 setdash
newpath
71.18734315381285 -274.13606630117323 moveto
77.75394888637908 -274.13606630117323 lineto
stroke
newpath
1.0 setlinewidth
10.0 setmiterlimit
0 setlinejoin
0 setlinecap
[ ] 0 setdash
newpath
71.18734315381285 -132.40378283660587 moveto
77.75394888637908 -132.40378283660587 lineto
stroke
newpath
1.0 0.0 0.0 setrgbcolor
2.0 setlinewidth
10.0 setmiterlimit
1 setlinejoin
1 setlinecap
[ ] 0 setdash
newpath
77.75394844312329 -371.9313423031924 moveto
81.07579640130622 -363.3723905564302 lineto
84.3976506218924 -354.9691472036562 lineto
87.71949858007532 -346.7216122448703 lineto
91.0413528006615 -338.6297856800726 lineto
94.36320075884443 -330.69369255887597 lineto
97.68504871702737 -322.9132827820546 lineto
101.00690293761353 -315.28860644883423 lineto
104.32875089579647 -307.8196385096021 lineto
107.6505988539794 -300.5063789643581 lineto
110.97245307456556 -293.3488278131022 lineto
114.29430729515174 -286.3469850558345 lineto
117.61614899093144 -279.50085069255505 lineto
120.93800321151761 -272.8104497728766 lineto
124.25985743210377 -266.27573219757335 lineto
127.58169912788348 -259.89674806587124 lineto
130.90355334846964 -253.6734723281573 lineto
134.22540756905582 -247.60590498443148 lineto
137.54726178964196 -241.69404603469383 lineto
140.86910348542168 -235.93789547894434 lineto
144.19095770600785 -230.33747836679595 lineto
147.51281192659403 -224.8927445990228 lineto
150.8346536223737 -219.6037442748507 lineto
154.15650784295988 -214.47045234466677 lineto
157.47836206354606 -209.49285628366454 lineto
160.80020375932574 -204.67098114145693 lineto
164.12205797991192 -200.00482691804396 lineto
167.4439122004981 -195.49436856381266 lineto
170.7657538962778 -191.13963112837598 lineto
174.08760811686395 -186.94060208692747 lineto
177.40946233745012 -182.8972939642736 lineto
180.7313165580363 -179.00969423560787 lineto
184.05315825381598 -175.27780290093028 lineto
187.37501247440215 -171.7016199602409 lineto
190.69686669498833 -168.28114541353963 lineto
194.01870839076804 -165.016391785633 lineto
197.3405626113542 -161.9073465517145 lineto
200.66241683194036 -158.95402223659067 lineto
203.98425852772007 -156.1563937906485 lineto
207.30611274830625 -153.514486263501 lineto
210.6279669688924 -151.02828713034162 lineto
213.94982118947857 -148.69780891597688 lineto
217.27167541006474 -146.5230265707938 lineto
220.59350458103796 -144.50396514440538 lineto
223.91535880162414 -142.64062463681157 lineto
227.2372130222103 -140.93297999839945 lineto
230.5590672427965 -139.38105627878195 lineto
233.88092146338263 -137.98484095315263 lineto
237.2027756839688 -136.74433402151143 lineto
240.52462990455498 -135.6595480086649 lineto
243.8464590755282 -134.73045786500003 lineto
247.16831329611438 -133.9570886401298 lineto
250.49016751670055 -133.3394403340542 lineto
253.81202173728673 -132.87748789716025 lineto
257.1338759578729 -132.57125637906097 lineto
260.4557301784591 -132.42073325494982 lineto
263.7775593494323 -132.4259310496333 lineto
267.09941357001844 -132.5868247134985 lineto
270.42126779060465 -132.90343929615827 lineto
273.7431220111908 -133.3757747976127 lineto
277.06497623177694 -134.00380616824881 lineto
280.38683045236314 -134.78755845767955 lineto
283.7086846729493 -135.72701914109845 lineto
287.0305138439225 -136.82218821850552 lineto
290.3523680645087 -138.0730782147072 lineto
293.67422228509486 -139.47966408009057 lineto
296.996076505681 -141.04198338907503 lineto
300.3179307262672 -142.75999856724118 lineto
303.63978494685335 -144.63373466420197 lineto
306.9616141178266 -146.66316663034445 lineto
310.2834683384128 -148.848332040088 lineto
313.6053225589989 -151.18919331901327 lineto
316.9271767795851 -153.68577551673314 lineto
320.24903100017127 -156.33806610844118 lineto
323.5708852207574 -159.14606509413736 lineto
326.8927394413436 -162.10977247382172 lineto
330.21456861231684 -165.2292007723007 lineto
333.536422832903 -168.50433746476781 lineto
336.8582770534892 -171.9351825512231 lineto
340.18013127407534 -175.52174855647303 lineto
343.5019854946615 -179.2640229557111 lineto
346.8238397152477 -183.16200574893733 lineto
350.1456688862209 -187.21569693615172 lineto
353.4675231068071 -191.42510904216076 lineto
356.78937732739325 -195.7902295421579 lineto
360.1112315479794 -200.31105843614324 lineto
363.4330857685656 -204.98759572411674 lineto
366.75493998915175 -209.81985393088485 lineto
370.0767942097379 -214.8078205316411 lineto
373.3986233807112 -219.951508051192 lineto
376.7204776012973 -225.25087891511814 lineto
380.04233182188347 -230.70598322264533 lineto
383.36418604246967 -236.31679592416072 lineto
386.6860402630558 -242.08331701966424 lineto
390.007894483642 -248.00557155876885 lineto
393.32974870422817 -254.0835094422487 lineto
396.6515778752014 -260.31718076932964 lineto
399.9734320957876 -266.7065354407858 lineto
403.29528631637373 -273.251623555843 lineto
406.6171405369599 -279.95242006488843 lineto
409.9389947575461 -286.808924967922 lineto
413.26084897813223 -293.8211382649437 lineto
416.58267814910545 -300.98908500556655 lineto
419.90453236969165 -308.31271509056455 lineto
423.2263865902778 -315.7920786191637 lineto
426.548215761251 -323.4271254921381 lineto
429.87009503145015 -331.2179058087135 lineto
433.19192420242337 -339.1643945192771 lineto
436.5138034726225 -347.26659162382884 lineto
439.8356326435957 -355.52452217198174 lineto
443.1575119137948 -363.9381360645098 lineto
446.47934108476807 -372.507483400639 lineto
449.8011702557413 -381.23251408114334 lineto
453.12304952594036 -390.11327820524883 lineto
456.44487869691363 -399.1497507233425 lineto
459.7667579671127 -408.34193163542426 lineto
463.0885871380859 -417.68982094149425 lineto
466.41046640828506 -427.19344369116527 lineto
469.7322955792583 -436.8527748348245 lineto
473.0541247502315 -446.667764273246 lineto
476.3760040204306 -456.6385122048815 lineto
479.69783319140384 -466.7649685305052 lineto
483.019712461603 -477.04713325011704 lineto
486.3415416325762 -487.48500636371705 lineto
489.6634209027753 -498.07858787130516 lineto
492.98525007374855 -508.82792787210735 lineto
496.30707924472176 -519.7329261676718 lineto
499.62895851492084 -530.7936328572245 lineto
502.9507876858941 -542.0100980399911 lineto
stroke
newpath
0.0 0.0 0.0 setrgbcolor
1.0 setlinewidth
10.0 setmiterlimit
1 setlinejoin
0 setlinecap
[ 1.0 3.0 ] 0 setdash
newpath
104.57042428720383 -307.282320617426 moveto
104.57042428720383 -415.8683497657406 lineto
stroke
newpath
0.0 0.0 0.0 setrgbcolor
1.0 setlinewidth
10.0 setmiterlimit
1 setlinejoin
0 setlinecap
[ 1.0 3.0 ] 0 setdash
newpath
436.91601936022835 -348.2582305551004 moveto
436.91601936022835 -415.8683497657406 lineto
stroke
newpath
0.0 0.0 0.0 setrgbcolor
1.0 setlinewidth
10.0 setmiterlimit
1 setlinejoin
1 setlinecap
[ ] 0 setdash
newpath
182.6625586486249 -176.82110557018456 moveto
373.3526541823275 -219.87923649589183 lineto
stroke
newpath
0.0 0.0 0.0 setrgbcolor
1.0 setlinewidth
10.0 setmiterlimit
1 setlinejoin
1 setlinecap
[ ] 0 setdash
newpath
129.99577035836418 -255.3586841012446 moveto
395.1458079576078 -257.4721866396253 lineto
stroke
newpath
0.0 0.0 0.0 setrgbcolor
1.0 setlinewidth
10.0 setmiterlimit
1 setlinejoin
1 setlinecap
[ ] 0 setdash
newpath
109.49537858662849 -415.8683497657406 moveto
109.49537858662849 -418.58832691892644 107.29040144038967 -420.7933040651653 104.57042428720383 -420.7933040651653 curveto
101.85044713401798 -420.7933040651653 99.64546998777917 -418.58832691892644 99.64546998777917 -415.8683497657406 curveto
99.64546998777917 -413.1483726125548 101.85044713401798 -410.94339546631596 104.57042428720383 -410.94339546631596 curveto
107.29040144038967 -410.94339546631596 109.49537858662849 -413.1483726125548 109.49537858662849 -415.8683497657406 curveto
closepath
fill
newpath
0.0 0.0 0.0 setrgbcolor
1.0 setlinewidth
10.0 setmiterlimit
1 setlinejoin
1 setlinecap
[ ] 0 setdash
newpath
109.49537858662849 -415.8683497657406 moveto
109.49537858662849 -418.58832691892644 107.29040144038967 -420.7933040651653 104.57042428720383 -420.7933040651653 curveto
101.85044713401798 -420.7933040651653 99.64546998777917 -418.58832691892644 99.64546998777917 -415.8683497657406 curveto
99.64546998777917 -413.1483726125548 101.85044713401798 -410.94339546631596 104.57042428720383 -410.94339546631596 curveto
107.29040144038967 -410.94339546631596 109.49537858662849 -413.1483726125548 109.49537858662849 -415.8683497657406 curveto
closepath
stroke
newpath
0.0 0.0 0.0 setrgbcolor
1.0 setlinewidth
10.0 setmiterlimit
1 setlinejoin
1 setlinecap
[ ] 0 setdash
newpath
112.34731360516999 -445.20176072598684 moveto
111.21226551014739 -446.24703100558395 110.11890002302724 -446.76966609865525 109.06721708934222 -446.76966609865525 curveto
108.20150244059617 -446.76966609865525 107.4832799558925 -446.49872947710327 106.91254958334393 -445.95685625822284 curveto
106.34181918528172 -445.4149830151188 106.05645401176425 -444.73042719672287 106.05645401176425 -443.9031887915682 curveto
106.05645401176425 -442.7617279954438 106.53580341912549 -441.88479117079686 107.49450219099079 -441.27237824294974 curveto
108.45320100571327 -440.6599652877257 109.82712217392158 -440.35375883749066 111.61626570134914 -440.35375883749066 curveto
112.06836111555414 -440.35375883749066 lineto
112.06836111555414 -439.0936631085363 lineto
112.06836111555414 -437.88166260029186 111.44632910867735 -437.27566240035026 110.20226515053776 -437.27566240035026 curveto
109.20188377865344 -437.27566240035026 108.12134368771686 -437.58347205323776 106.96064484017425 -438.19909133149235 curveto
106.96064484017425 -436.63118595882395 lineto
108.23677235943694 -436.1117571695763 109.43274105787951 -435.8520427981728 110.54855099971606 -435.8520427981728 curveto
111.71566260024777 -435.8520427981728 112.5765676709935 -436.1149635433475 113.13126629150419 -436.64080501019004 curveto
113.68596493681184 -437.16664650053946 113.9633142346687 -437.9842658675149 113.9633142346687 -439.0936631085363 curveto
113.9633142346687 -443.8262363806397 lineto
113.9633142346687 -444.9099828668477 114.29677469196348 -445.4518560615045 114.96369557673934 -445.4518560615045 curveto
115.04706069106304 -445.4518560615045 115.16890200827096 -445.43903065930084 115.32921952864977 -445.41337985604025 curveto
115.46388624777467 -446.4618564549412 lineto
115.03423527395255 -446.66706289019953 114.55969541162457 -446.76966609865525 114.04026664559721 -446.76966609865525 curveto
113.1553138935457 -446.76966609865525 112.59099623614578 -446.2470309588567 112.34731360516999 -445.20176072598684 curveto
closepath
112.06836111555414 -444.172522229818 moveto
112.06836111555414 -441.46956879595405 lineto
111.43350372539392 -441.45033069322193 lineto
110.39464614689867 -441.45033069322193 109.55458234900046 -441.647521252103 108.91331226748521 -442.04190235223484 curveto
108.27204215730295 -442.43628346999697 107.95140713087882 -442.9541090663389 107.95140713087882 -443.59537914785415 curveto
107.95140713087882 -444.05068092608354 108.1117246584244 -444.43544297183934 108.43235969918202 -444.7496653117818 curveto
108.75299475427315 -445.0638876657711 109.14416950715082 -445.22099882871896 109.6058839658418 -445.22099882871896 curveto
110.39464620136599 -445.22099882871896 111.21547190713886 -444.8715066186696 112.06836111555414 -444.172522229818 curveto
closepath
fill
newpath
0.0 0.0 0.0 setrgbcolor
1.0 setlinewidth
10.0 setmiterlimit
1 setlinejoin
1 setlinecap
[ ] 0 setdash
newpath
441.84097365965306 -415.8683497657406 moveto
441.84097365965306 -418.58832691892644 439.63599651341417 -420.7933040651653 436.91601936022835 -420.7933040651653 curveto
434.1960422070425 -420.7933040651653 431.9910650608037 -418.58832691892644 431.9910650608037 -415.8683497657406 curveto
431.9910650608037 -413.1483726125548 434.1960422070425 -410.94339546631596 436.91601936022835 -410.94339546631596 curveto
439.63599651341417 -410.94339546631596 441.84097365965306 -413.1483726125548 441.84097365965306 -415.8683497657406 curveto
closepath
fill
newpath
0.0 0.0 0.0 setrgbcolor
1.0 setlinewidth
10.0 setmiterlimit
1 setlinejoin
1 setlinecap
[ ] 0 setdash
newpath
441.84097365965306 -415.8683497657406 moveto
441.84097365965306 -418.58832691892644 439.63599651341417 -420.7933040651653 436.91601936022835 -420.7933040651653 curveto
434.1960422070425 -420.7933040651653 431.9910650608037 -418.58832691892644 431.9910650608037 -415.8683497657406 curveto
431.9910650608037 -413.1483726125548 434.1960422070425 -410.94339546631596 436.91601936022835 -410.94339546631596 curveto
439.63599651341417 -410.94339546631596 441.84097365965306 -413.1483726125548 441.84097365965306 -415.8683497657406 curveto
closepath
stroke
newpath
0.0 0.0 0.0 setrgbcolor
1.0 setlinewidth
10.0 setmiterlimit
1 setlinejoin
1 setlinecap
[ ] 0 setdash
newpath
443.49918863419356 -445.00296699775487 moveto
443.49918863419356 -429.6990562743473 lineto
445.3941417533081 -429.6990562743473 lineto
445.3941417533081 -436.40353507649377 lineto
446.1700785866286 -434.9414392252782 447.3339838019224 -434.2103913650312 448.88585739918926 -434.2103913650312 curveto
450.1427468151465 -434.2103913650312 451.1319059039153 -434.6688994938115 451.85333474562 -435.58591571037834 curveto
452.574763619575 -436.502931967939 452.93547802430214 -437.7566149923515 452.93547802430214 -439.34696479450935 curveto
452.93547802430214 -441.0783940920014 452.52666832906095 -442.4747596795224 451.709048975129 -443.5360616644301 curveto
450.89142958464663 -444.59736369678177 449.8156990113663 -445.12801466551366 448.48185724181457 -445.12801466551366 curveto
447.24420592916283 -445.12801466551366 446.2149674576476 -444.65347478397877 445.3941417533081 -443.7043950633362 curveto
445.16328452052255 -445.00296699775487 lineto
closepath
445.3941417533081 -442.39620407755154 moveto
446.36887232078516 -443.2683314273994 447.29871393697556 -443.7043950633362 448.1836666494666 -443.7043950633362 curveto
450.0048737623842 -443.7043950633362 450.9154772374287 -442.31604527479163 450.9154772374287 -439.5393458218306 curveto
450.9154772374287 -437.0896940009344 450.1074768985991 -435.86486819999425 448.49147629318065 -435.86486819999425 curveto
447.4333806113799 -435.86486819999425 446.40093578128705 -436.43880494860736 445.3941417533081 -437.58667839451965 curveto
closepath
fill
newpath
grestore
grestore
showpage

%%EOF