%!PS
%%BoundingBox: -114 -29 57 142 
%%HiResBoundingBox: -113.6358 -28.59645 56.9429 141.98225 
%%Creator: MetaPost 2.00
%%CreationDate: 2020.10.08:0932
%%Pages: 1
%*Font: cmsy10 9.96265 9.96265 00:80000000000000001
%*Font: cmr10 9.96265 9.96265 30:f8
%*Font: cmmi7 6.97385 6.97385 66:8
%%BeginProlog
%%EndProlog
%%Page: 1 1
 1 0 0 setrgbcolor 0 2 dtransform truncate idtransform setlinewidth pop
 [] 0 setdash 1 setlinecap 1 setlinejoin 10 setmiterlimit
newpath -85.03935 0 moveto
-85.03935 0 lineto
-84.11806 3.69124 -83.1734 7.37685 -82.20453 11.05597 curveto
-81.28238 14.55818 -80.33902 18.0552 -79.36972 21.54445 curveto
-78.44928 24.8585 -77.50551 28.16652 -76.5349 31.46631 curveto
-75.61534 34.59222 -74.67198 37.71121 -73.70007 40.82112 curveto
-72.78181 43.75888 -71.83846 46.68886 -70.86526 49.60889 curveto
-69.94873 52.35893 -69.00537 55.09988 -68.03044 57.82959 curveto
-67.1152 60.39192 -66.17229 62.94386 -65.19563 65.48326 curveto
-64.28212 67.85829 -63.3392 70.22165 -62.36081 72.57031 curveto
-61.44946 74.75806 -60.50655 76.93239 -59.52599 79.08987 curveto
-58.61638 81.09076 -57.67432 83.07695 -56.69118 85.04282 curveto
-55.78372 86.85728 -54.84166 88.65489 -53.85635 90.42871 curveto
-52.95107 92.05806 -52.00945 93.66708 -51.02153 95.24756 curveto
-50.11841 96.69221 -49.17722 98.11308 -48.18672 99.49934 curveto
-47.28575 100.7606 -46.34456 101.99333 -45.3519 103.1841 curveto
-44.45222 104.26369 -43.51105 105.30826 -42.51707 106.30179 curveto
-41.61742 107.20145 -40.6758 108.05786 -39.68227 108.85243 curveto
-38.78043 109.5739 -37.83795 110.24258 -36.84744 110.83646 curveto
-35.93999 111.38058 -34.9949 111.86026 -34.01263 112.253 curveto
-33.09479 112.61978 -32.14711 112.90915 -31.17781 113.10292 curveto
-30.2444 113.28935 -29.295 113.38623 -28.34299 113.3858 curveto
-27.39099 113.38538 -26.44157 113.28848 -25.50818 113.10162 curveto
-24.53886 112.90742 -23.59119 112.61763 -22.67336 112.25041 curveto
-21.69064 111.85724 -20.74599 111.3767 -19.83853 110.83214 curveto
-18.84846 110.23784 -17.90555 109.56914 -17.00372 108.84724 curveto
-16.0102 108.05225 -15.06857 107.19496 -14.1689 106.29486 curveto
-13.17494 105.30048 -12.23375 104.2559 -11.33408 103.17587 curveto
-10.34142 101.98425 -9.40022 100.75153 -8.49927 99.4894 curveto
-7.50876 98.1027 -6.56758 96.6814 -5.66444 95.23631 curveto
-4.67654 93.6554 -3.73492 92.04594 -2.82962 90.41617 curveto
-1.84431 88.64192 -0.90227 86.84431 0.00519 85.02898 curveto
0.98834 83.06268 1.93039 81.07605 2.84001 79.07472 curveto
3.82056 76.91682 4.76347 74.74162 5.67482 72.55344 curveto
6.65321 70.20435 7.59657 67.84099 8.50964 65.46553 curveto
9.4863 62.92569 10.42923 60.3729 11.34447 57.81013 curveto
12.3194 55.07999 13.26274 52.3386 14.17928 49.58812 curveto
15.15248 46.66766 16.09583 43.73726 17.0141 40.79906 curveto
17.986 37.68872 18.92935 34.56929 19.84892 31.44295 curveto
20.81952 28.14273 21.7633 24.83429 22.68373 21.51979 curveto
23.65305 18.02968 24.59639 14.53223 25.51855 11.02957 curveto
26.487 7.35002 27.43208 3.66399 28.35338 -0.02768 curveto stroke
 0 0 0 setrgbcolor 0.5 0 dtransform exch truncate exch idtransform pop setlinewidth
newpath -85.03935 -2.83482 moveto
-85.03935 2.83482 lineto stroke
newpath -56.6929 -2.83482 moveto
-56.6929 2.83482 lineto stroke
newpath -28.34645 -2.83482 moveto
-28.34645 2.83482 lineto stroke
newpath 0 -2.83482 moveto
0 2.83482 lineto stroke
newpath 28.34645 -2.83482 moveto
28.34645 2.83482 lineto stroke
-82.93936 -11.35521 moveto
(\000) cmsy10 9.96265 fshow
-75.19066 -11.35521 moveto
(3) cmr10 9.96265 fshow
-54.59291 -11.35521 moveto
(\000) cmsy10 9.96265 fshow
-46.84421 -11.35521 moveto
(2) cmr10 9.96265 fshow
-26.24646 -11.35521 moveto
(\000) cmsy10 9.96265 fshow
-18.49776 -11.35521 moveto
(1) cmr10 9.96265 fshow
2.09999 -11.35521 moveto
(0) cmr10 9.96265 fshow
30.44644 -11.35521 moveto
(1) cmr10 9.96265 fshow
 0 0.5 dtransform truncate idtransform setlinewidth pop
newpath -2.83482 0 moveto
2.83482 0 lineto stroke
newpath -2.83482 28.34645 moveto
2.83482 28.34645 lineto stroke
newpath -2.83482 56.6929 moveto
2.83482 56.6929 lineto stroke
newpath -2.83482 85.03935 moveto
2.83482 85.03935 lineto stroke
newpath -2.83482 113.3858 moveto
2.83482 113.3858 lineto stroke
-10.81612 25.13625 moveto
(1) cmr10 9.96265 fshow
-10.81612 53.4827 moveto
(2) cmr10 9.96265 fshow
-10.81612 81.82915 moveto
(3) cmr10 9.96265 fshow
-10.81612 110.1756 moveto
(4) cmr10 9.96265 fshow
newpath -113.3858 0 moveto
56.6929 0 lineto stroke
newpath 52.99814 -1.53046 moveto
56.6929 0 lineto
52.99814 1.53046 lineto
 closepath
gsave fill grestore stroke
 0.5 0 dtransform exch truncate exch idtransform pop setlinewidth
newpath 0 -28.34645 moveto
0 141.73225 lineto stroke
 0 0.5 dtransform truncate idtransform setlinewidth pop
newpath 1.53046 138.03749 moveto
0 141.73225 lineto
-1.53046 138.03749 lineto
 closepath
gsave fill grestore stroke
 1 0 0 setrgbcolor
-26.24646 118.3362 moveto
(C) cmsy10 9.96265 fshow
-21.00085 116.8418 moveto
(f) cmmi7 6.97385 fshow
showpage
%%EOF
