%!PS-Adobe-3.0 EPSF-3.0
%%Creator: EpsGraphics 1.0.0 by Thomas Abeel, http://www.sourceforge.net/epsgraphics/
%%Title: GeoGebra, http://www.geogebra.org/
%%CreationDate: Tue May 21 18:45:44 CEST 2013
%%BoundingBox: 0 0 236 257
%%DocumentData: Clean7Bit
%%LanguageLevel: 2
%%DocumentProcessColors: Black
%%ColorUsage: Color
%%Origin: 0 0
%%Pages: 1
%%Page: 1 1
%%EndComments

gsave
0.0 257.0 translate
0.0 0.0 0.0 setrgbcolor
0.0 0.0 0.0 setrgbcolor
gsave
newpath
0.0 -0.0 moveto
236.9770984920579 -0.0 lineto
236.9770984920579 -257.18021518377714 lineto
0.0 -257.18021518377714 lineto
0.0 -0.0 lineto
closepath
clip
newpath
1.0 1.0 1.0 setrgbcolor
newpath
0.0 -0.0 moveto
236.9770984920579 -0.0 lineto
236.9770984920579 -257.18021518377714 lineto
0.0 -257.18021518377714 lineto
0.0 -0.0 lineto
closepath
fill
newpath
0.0 0.0 0.0 setrgbcolor
1.0 setlinewidth
10.0 setmiterlimit
0 setlinejoin
0 setlinecap
[ ] 0 setdash
newpath
39.84461905524321 -1.0920603617145526 moveto
39.84461905524321 -257.18021518377714 lineto
stroke
newpath
1.0 setlinewidth
10.0 setmiterlimit
0 setlinejoin
0 setlinecap
[ ] 0 setdash
newpath
40.11763414567185 -0.5460301808572763 moveto
38.20652851267138 -2.184120723429105 lineto
stroke
newpath
1.0 setlinewidth
10.0 setmiterlimit
0 setlinejoin
0 setlinecap
[ ] 0 setdash
newpath
39.57160396481457 -0.5460301808572763 moveto
41.48270959781504 -2.184120723429105 lineto
stroke
newpath
1.0 setlinewidth
10.0 setmiterlimit
0 setlinejoin
0 setlinecap
[ ] 0 setdash
newpath
0.0 -234.28113355493005 moveto
235.88503813034336 -234.28113355493005 lineto
stroke
newpath
1.0 setlinewidth
10.0 setmiterlimit
0 setlinejoin
0 setlinecap
[ ] 0 setdash
newpath
236.43106831120062 -234.55414864535868 moveto
234.7929777686288 -232.64304301235822 lineto
stroke
newpath
1.0 setlinewidth
10.0 setmiterlimit
0 setlinejoin
0 setlinecap
[ ] 0 setdash
newpath
236.43106831120062 -234.00811846450142 moveto
234.7929777686288 -235.91922409750188 lineto
stroke
newpath
0.0 0.0 0.0 setrgbcolor
1.0 setlinewidth
10.0 setmiterlimit
0 setlinejoin
0 setlinecap
[ ] 0 setdash
newpath
9.016430007925473 -240.44364361486373 moveto
9.016430007925473 -240.0810454478882 lineto
11.186686683793749 -240.0810454478882 lineto
11.186686683793749 -240.44364361486373 lineto
closepath
12.28781199968269 -241.8913701197734 moveto
12.28781199968269 -241.49677799688826 lineto
13.076996245452973 -241.49677799688826 lineto
13.076996245452973 -238.3826996216866 lineto
12.28781199968269 -238.57999568312917 lineto
12.28781199968269 -238.17473890827415 lineto
13.604896517961471 -237.8468008602007 lineto
13.604896517961471 -241.49677799688826 lineto
14.394080763731754 -241.49677799688826 lineto
14.394080763731754 -241.8913701197734 lineto
closepath
fill
newpath
1.0 setlinewidth
10.0 setmiterlimit
0 setlinejoin
0 setlinecap
[ ] 0 setdash
newpath
11.498162362329824 -234.28113355493005 moveto
11.498162362329824 -236.46525427835914 lineto
stroke
newpath
0.0 0.0 0.0 setrgbcolor
1.0 setlinewidth
10.0 setmiterlimit
0 setlinejoin
0 setlinecap
[ ] 0 setdash
newpath
44.30203074803147 -241.99001815049468 moveto
43.89499651905092 -241.99001815049468 43.56572539786403 -241.79849876982806 43.314217359322384 -241.415460025618 curveto
43.06270930953746 -241.03242126428478 42.93695529588828 -240.532515705422 42.93695529588828 -239.91574334235523 curveto
42.93695529588828 -239.29363862557273 43.06359804180472 -238.79328871688503 43.31688352231485 -238.4146935775962 curveto
43.57016901414773 -238.03609842138286 43.903883747327605 -237.8468008602007 44.318027725986276 -237.8468008602007 curveto
44.73217172315863 -237.8468008602007 45.06588644914756 -238.03609843830736 45.3191719296577 -238.4146935775962 curveto
45.572457421490576 -238.79328873380956 45.69910015608427 -239.29097249031102 45.69910015608427 -239.9077448533778 curveto
45.69910015608427 -240.54051422244802 45.572457410167836 -241.04575209629084 45.3191719296577 -241.4234585145954 curveto
45.06588643782482 -241.80116494978478 44.7268393785011 -241.99001815049468 44.30203074803147 -241.99001815049468 curveto
closepath
44.30736307401641 -241.59542602760953 moveto
44.86370243502476 -241.59542602760953 45.14187209065863 -241.03019945636143 45.14187209065863 -239.89974636440041 curveto
45.14187209065863 -238.79417741057551 44.86725729425035 -238.24139298308583 44.318027725986276 -238.24139298308583 curveto
43.77057557521767 -238.24139298308583 43.496849524306384 -238.79950978614215 43.496849524306384 -239.91574334235523 curveto
43.496849524306384 -241.03553183256372 43.76702071559479 -241.59542602760953 44.30736307401641 -241.59542602760953 curveto
closepath
fill
newpath
1.0 setlinewidth
10.0 setmiterlimit
0 setlinejoin
0 setlinecap
[ ] 0 setdash
newpath
39.84461905524321 -234.28113355493005 moveto
39.84461905524321 -236.46525427835914 lineto
stroke
newpath
0.0 0.0 0.0 setrgbcolor
1.0 setlinewidth
10.0 setmiterlimit
0 setlinejoin
0 setlinecap
[ ] 0 setdash
newpath
67.4368602662676 -241.8913701197734 moveto
67.4368602662676 -241.49677799688826 lineto
68.22604451203787 -241.49677799688826 lineto
68.22604451203787 -238.3826996216866 lineto
67.4368602662676 -238.57999568312917 lineto
67.4368602662676 -238.17473890827415 lineto
68.75394478454638 -237.8468008602007 lineto
68.75394478454638 -241.49677799688826 lineto
69.54312903031666 -241.49677799688826 lineto
69.54312903031666 -241.8913701197734 lineto
closepath
fill
newpath
1.0 setlinewidth
10.0 setmiterlimit
0 setlinejoin
0 setlinecap
[ ] 0 setdash
newpath
68.19107574815659 -234.28113355493005 moveto
68.19107574815659 -236.46525427835914 lineto
stroke
newpath
0.0 0.0 0.0 setrgbcolor
1.0 setlinewidth
10.0 setmiterlimit
0 setlinejoin
0 setlinecap
[ ] 0 setdash
newpath
95.46249917788549 -241.8913701197734 moveto
95.46249917788549 -241.43012392207658 lineto
95.6153591940092 -241.07285807043863 95.92463410351913 -240.6835982779086 96.39032389926406 -240.26234453137596 curveto
96.69160031741286 -239.99306206913676 lineto
97.07908268386596 -239.64290598569062 97.2728238497707 -239.29541608096957 97.2728238497707 -238.9505923390821 curveto
97.2728238497707 -238.73018952513632 97.20661413348456 -238.55688893531396 97.07419470683189 -238.430690555551 curveto
96.94177527425961 -238.30449217014655 96.76003183077634 -238.24139298308583 96.52896437487236 -238.24139298308583 curveto
96.25523829948806 -238.24139298308583 95.93263258002165 -238.34715078493886 95.56114720860678 -238.55866637918942 curveto
95.56114720860678 -238.09475401850014 lineto
95.91130329205293 -237.9294519080408 96.25879319677396 -237.8468008602007 96.60361693866145 -237.8468008602007 curveto
96.97332488463505 -237.8468008602007 97.27015769011547 -237.9463376148859 97.49411537814548 -238.145411115357 curveto
97.71807307618718 -238.34448462472741 97.83005191519634 -238.60843475994872 97.83005191519634 -238.93726152411978 curveto
97.83005191519634 -239.17366131649712 97.77361813017392 -239.3833994675873 97.66075056517467 -239.566475990342 curveto
97.54788299512985 -239.74955252128086 97.33770047800533 -239.97173276909047 97.03020301745619 -240.23301673845882 curveto
96.82757463002868 -240.40631733296917 lineto
96.40632086466452 -240.76358318460714 96.16281132292688 -241.10485204184252 96.09704597009268 -241.43012392207658 curveto
97.81138877424907 -241.43012392207658 lineto
97.81138877424907 -241.8913701197734 lineto
closepath
fill
newpath
1.0 setlinewidth
10.0 setmiterlimit
0 setlinejoin
0 setlinecap
[ ] 0 setdash
newpath
96.53753244106997 -234.28113355493005 moveto
96.53753244106997 -236.46525427835914 lineto
stroke
newpath
0.0 0.0 0.0 setrgbcolor
1.0 setlinewidth
10.0 setmiterlimit
0 setlinejoin
0 setlinecap
[ ] 0 setdash
newpath
123.95738277617761 -241.86204232685625 moveto
123.95738277617761 -241.3714683362423 lineto
124.33420049034301 -241.52077346827008 124.6310332955056 -241.59542602760953 124.84788121566164 -241.59542602760953 curveto
125.09850054442259 -241.59542602760953 125.3024620082213 -241.5221065431316 125.45976562243285 -241.375467580731 curveto
125.61706924367644 -241.22882861177513 125.6957210472662 -241.03908667971174 125.6957210472662 -240.80624178183925 curveto
125.6957210472662 -240.25167986287883 125.30734995978912 -239.9743989281895 124.53060781955806 -239.9743989281895 curveto
124.32264710614561 -239.9743989281895 lineto
124.32264710614561 -239.61979925019136 lineto
124.50661235262585 -239.6171330871989 lineto
125.23536359228535 -239.6171330871989 125.59973917953738 -239.36029271127012 125.59973917953738 -238.8466119823759 curveto
125.59973917953738 -238.44313263749123 125.35978450306413 -238.24139298308583 124.87987517157126 -238.24139298308583 curveto
124.61681374847466 -238.24139298308583 124.32709070641856 -238.31515682807577 124.01070603602696 -238.46268451146062 curveto
124.01070603602696 -238.00410447675625 lineto
124.32175839441821 -237.8992353959272 124.62392352866459 -237.8468008602007 124.9172014534658 -237.8468008602007 curveto
125.7241601432351 -237.8468008602007 126.12763945204588 -238.15163217142413 126.12763945204588 -238.76129476661694 curveto
126.12763945204588 -239.22520714113188 125.85302465563761 -239.55581134131208 125.30379508737353 -239.75310739981472 curveto
125.94011934053964 -239.90063508979458 126.25828143867678 -240.24901372459777 126.25828143867678 -240.79824329286186 curveto
126.25828143867678 -241.16972868088342 126.13563793736823 -241.46122916014053 125.8903509457163 -241.6727447543911 curveto
125.6450639430992 -241.88426035809715 125.30823868597787 -241.99001815049468 124.87987517157126 -241.99001815049468 curveto
124.63636561100209 -241.99001815049468 124.32886814759247 -241.94735954134387 123.95738277617761 -241.86204232685625 curveto
closepath
fill
newpath
1.0 setlinewidth
10.0 setmiterlimit
0 setlinejoin
0 setlinecap
[ ] 0 setdash
newpath
124.88398913398335 -234.28113355493005 moveto
124.88398913398335 -236.46525427835914 lineto
stroke
newpath
0.0 0.0 0.0 setrgbcolor
1.0 setlinewidth
10.0 setmiterlimit
0 setlinejoin
0 setlinecap
[ ] 0 setdash
newpath
153.85200194551498 -241.8913701197734 moveto
153.85200194551498 -240.77424782592965 lineto
152.07633739253185 -240.77424782592965 lineto
152.07633739253185 -240.37698954005205 lineto
153.85200194551498 -237.945448890922 lineto
154.3452420991214 -237.945448890922 lineto
154.3452420991214 -240.34499558414242 lineto
154.8731423716299 -240.34499558414242 lineto
154.8731423716299 -240.77424782592965 lineto
154.3452420991214 -240.77424782592965 lineto
154.3452420991214 -241.8913701197734 lineto
closepath
152.59090685007803 -240.34499558414242 moveto
153.88666206441707 -240.34499558414242 lineto
153.88666206441707 -238.59066033509905 lineto
closepath
fill
newpath
1.0 setlinewidth
10.0 setmiterlimit
0 setlinejoin
0 setlinecap
[ ] 0 setdash
newpath
153.23044582689676 -234.28113355493005 moveto
153.23044582689676 -236.46525427835914 lineto
stroke
newpath
0.0 0.0 0.0 setrgbcolor
1.0 setlinewidth
10.0 setmiterlimit
0 setlinejoin
0 setlinecap
[ ] 0 setdash
newpath
180.8538342680255 -241.90736709772818 moveto
180.8538342680255 -241.43812241105397 lineto
181.11511824907416 -241.54299149188301 181.36396012410685 -241.59542602760953 181.6003599059163 -241.59542602760953 curveto
181.859866444917 -241.59542602760953 182.06382790831844 -241.51899601954767 182.21224431268752 -241.36613601025735 curveto
182.36066072369135 -241.21327599413365 182.43486892255854 -241.00264911828495 182.43486892255854 -240.73425538104263 curveto
182.43486892255854 -240.14236717907528 182.026945972554 -239.84642310455106 181.2111001090161 -239.84642310455106 curveto
181.1186731225227 -239.84642310455106 181.02180253504125 -239.8526441517189 180.9204883428372 -239.86508624549833 curveto
180.9204883428372 -237.945448890922 lineto
182.91744442419508 -237.945448890922 lineto
182.91744442419508 -238.40402892562633 lineto
181.38173454053398 -238.40402892562633 lineto
181.38173454053398 -239.44383249268853 lineto
181.88830552419975 -239.44383249268853 182.28378635722316 -239.56025494682925 182.5681770721819 -239.79309984470174 curveto
182.8525677998539 -240.02594475298318 182.99476315097664 -240.34855047427712 182.99476315097664 -240.76091701096732 curveto
182.99476315097664 -241.1448444933245 182.86545424198826 -241.44567654277716 182.60683643557266 -241.66341318391744 curveto
182.34821861759593 -241.88114983479133 181.98961969598312 -241.99001815049468 181.53103966811216 -241.99001815049468 curveto
181.33196615874175 -241.99001815049468 181.1062310275514 -241.96246779875145 180.8538342680255 -241.90736709772818 curveto
closepath
fill
newpath
1.0 setlinewidth
10.0 setmiterlimit
0 setlinejoin
0 setlinecap
[ ] 0 setdash
newpath
181.57690251981015 -234.28113355493005 moveto
181.57690251981015 -236.46525427835914 lineto
stroke
newpath
0.0 0.0 0.0 setrgbcolor
1.0 setlinewidth
10.0 setmiterlimit
0 setlinejoin
0 setlinecap
[ ] 0 setdash
newpath
209.52201846082798 -239.84642310455106 moveto
209.77263778958894 -239.5211512097762 210.0881337418965 -239.35851527692958 210.46850632315383 -239.35851527692958 curveto
210.81333008045613 -239.35851527692958 211.09549899015337 -239.47271592851035 211.31501307326215 -239.7011172214616 curveto
211.53452716618398 -239.92951852462318 211.64428420283184 -240.22235209181264 211.64428420283184 -240.57961792747955 curveto
211.64428420283184 -240.990207040556 211.52119634101132 -241.32792101131173 211.27502062837516 -241.59275986461708 curveto
211.0288449047341 -241.85759872976163 210.71645947581177 -241.99001815049468 210.33786433652293 -241.99001815049468 curveto
209.90239103477518 -241.99001815049468 209.56201090205994 -241.8149401087716 209.316723910408 -241.46478404097866 curveto
209.0714369077909 -241.1146279575325 208.94879341744755 -240.62849757307137 208.94879341744755 -240.0063928840991 curveto
208.94879341744755 -239.32207769563837 209.08965569974757 -238.79062255389258 209.37138025175358 -238.41202741460373 curveto
209.65310481635368 -238.03343225839038 210.04991874096444 -237.84413469720823 210.56182202789017 -237.84413469720823 curveto
210.79644437821958 -237.84413469720823 211.0897223056429 -237.89390307455082 211.44165581540435 -237.99343982478638 curveto
211.44165581540435 -238.45201985949075 lineto
211.07017042738278 -238.30982449565474 210.76622785379 -238.23872682009338 210.52982807198057 -238.23872682009338 curveto
209.85795497785546 -238.23872682009338 209.52201846082798 -238.7746255975503 209.52201846082798 -239.84642310455106 curveto
closepath
211.11638393032334 -240.6969290991481 moveto
211.11638393032334 -240.3983188350925 211.04928549301323 -240.16369649811202 210.91508862439207 -239.99306206913676 curveto
210.78089174977185 -239.82242763253356 210.59470470124816 -239.7371104218599 210.3565274774702 -239.7371104218599 curveto
210.13434722147645 -239.7371104218599 209.94327221125405 -239.8117629878738 209.78330243408976 -239.96106811322716 curveto
209.62333264977428 -240.11037324525495 209.54334776476773 -240.28989488542345 209.54334776476773 -240.49963303770554 curveto
209.54334776476773 -240.83023725862424 209.6193334123176 -241.0955204695016 209.77130470062366 -241.295482690957 curveto
209.9232759957234 -241.49544492135135 210.12457130086008 -241.59542602760953 210.3751906184175 -241.59542602760953 curveto
210.60092575850712 -241.59542602760953 210.7808917557709 -241.51410805391583 210.91508862439207 -241.3514721137988 curveto
211.04928549901229 -241.18883616641136 211.11638393032334 -240.97065516229588 211.11638393032334 -240.6969290991481 curveto
closepath
fill
newpath
1.0 setlinewidth
10.0 setmiterlimit
0 setlinejoin
0 setlinecap
[ ] 0 setdash
newpath
209.92335921272354 -234.28113355493005 moveto
209.92335921272354 -236.46525427835914 lineto
stroke
newpath
0.0 0.0 0.0 setrgbcolor
1.0 setlinewidth
10.0 setmiterlimit
0 setlinejoin
0 setlinecap
[ ] 0 setdash
newpath
34.4734874926005 -233.25353525677826 moveto
34.06645326361994 -233.25353525677826 33.73718214243305 -233.06201587611164 33.48567410389141 -232.67897713190158 curveto
33.23416605410649 -232.29593837056836 33.10841204045731 -231.79603281170557 33.10841204045731 -231.1792604486388 curveto
33.10841204045731 -230.55715573185628 33.235054786373745 -230.05680582316862 33.48834026688388 -229.6782106838798 curveto
33.74162575871676 -229.29961552766645 34.07534049189663 -229.11031796648427 34.489484470555304 -229.11031796648427 curveto
34.90362846772766 -229.11031796648427 35.23734319371659 -229.29961554459095 35.49062867422673 -229.6782106838798 curveto
35.743914166059604 -230.05680584009315 35.8705569006533 -230.5544895965946 35.8705569006533 -231.1712619596614 curveto
35.8705569006533 -231.80403132873158 35.74391415473686 -232.3092692025744 35.49062867422673 -232.686975620879 curveto
35.23734318239385 -233.06468205606836 34.898296123070125 -233.25353525677826 34.4734874926005 -233.25353525677826 curveto
closepath
34.478819818585436 -232.85894313389312 moveto
35.03515917959379 -232.85894313389312 35.31332883522766 -232.29371656264502 35.31332883522766 -231.163263470684 curveto
35.31332883522766 -230.0576945168591 35.03871403881938 -229.50491008936942 34.489484470555304 -229.50491008936942 curveto
33.9420323197867 -229.50491008936942 33.66830626887541 -230.0630268924257 33.66830626887541 -231.1792604486388 curveto
33.66830626887541 -232.2990489388473 33.93847746016382 -232.85894313389312 34.478819818585436 -232.85894313389312 curveto
closepath
fill
newpath
1.0 setlinewidth
10.0 setmiterlimit
0 setlinejoin
0 setlinecap
[ ] 0 setdash
newpath
37.660498331814104 -234.28113355493005 moveto
39.84461905524321 -234.28113355493005 lineto
stroke
newpath
0.0 0.0 0.0 setrgbcolor
1.0 setlinewidth
10.0 setmiterlimit
0 setlinejoin
0 setlinecap
[ ] 0 setdash
newpath
33.582989053116464 -208.03749890662226 moveto
33.582989053116464 -207.64290678373712 lineto
34.37217329888675 -207.64290678373712 lineto
34.37217329888675 -204.52882840853547 lineto
33.582989053116464 -204.72612446997803 lineto
33.582989053116464 -204.32086769512304 lineto
34.90007357139525 -203.99292964704958 lineto
34.90007357139525 -207.64290678373712 lineto
35.689257817165526 -207.64290678373712 lineto
35.689257817165526 -208.03749890662226 lineto
closepath
fill
newpath
1.0 setlinewidth
10.0 setmiterlimit
0 setlinejoin
0 setlinecap
[ ] 0 setdash
newpath
37.660498331814104 -205.93467686201666 moveto
39.84461905524321 -205.93467686201666 lineto
stroke
newpath
0.0 0.0 0.0 setrgbcolor
1.0 setlinewidth
10.0 setmiterlimit
0 setlinejoin
0 setlinecap
[ ] 0 setdash
newpath
33.215058560155995 -179.6439295020439 moveto
33.215058560155995 -179.18268330434708 lineto
33.3679185762797 -178.82541745270913 33.67719348578962 -178.4361576601791 34.14288328153457 -178.01490391364646 curveto
34.44415969968336 -177.74562145140726 lineto
34.83164206613646 -177.39546536796112 35.0253832320412 -177.04797546324008 35.0253832320412 -176.7031517213526 curveto
35.0253832320412 -176.48274890740683 34.95917351575506 -176.30944831758447 34.8267540891024 -176.1832499378215 curveto
34.694334656530124 -176.05705155241705 34.512591213046846 -175.99395236535634 34.281523757142864 -175.99395236535634 curveto
34.00779768175856 -175.99395236535634 33.685191962292144 -176.09971016720937 33.31370659087728 -176.31122576145992 curveto
33.31370659087728 -175.84731340077064 lineto
33.66386267432343 -175.6820112903113 34.01135257904446 -175.5993602424712 34.356176320931944 -175.5993602424712 curveto
34.725884266905545 -175.5993602424712 35.022717072385966 -175.6988969971564 35.24667476041598 -175.8979704976275 curveto
35.47063245845768 -176.09704400699792 35.58261129746684 -176.36099414221923 35.58261129746684 -176.68982090639028 curveto
35.58261129746684 -176.92622069876762 35.52617751244443 -177.13595884985781 35.41330994744518 -177.31903537261252 curveto
35.30044237740035 -177.50211190355137 35.090259860275836 -177.72429215136097 34.78276239972669 -177.98557612072932 curveto
34.58013401229918 -178.15887671523967 lineto
34.158880246935034 -178.51614256687765 33.9153707051974 -178.85741142411302 33.849605352363184 -179.18268330434708 curveto
35.56394815651957 -179.18268330434708 lineto
35.56394815651957 -179.6439295020439 lineto
closepath
fill
newpath
1.0 setlinewidth
10.0 setmiterlimit
0 setlinejoin
0 setlinecap
[ ] 0 setdash
newpath
37.660498331814104 -177.58822016910327 moveto
39.84461905524321 -177.58822016910327 lineto
stroke
newpath
0.0 0.0 0.0 setrgbcolor
1.0 setlinewidth
10.0 setmiterlimit
0 setlinejoin
0 setlinecap
[ ] 0 setdash
newpath
33.31637275386975 -151.2210323045484 moveto
33.31637275386975 -150.73045831393443 lineto
33.693190468035155 -150.87976344596223 33.99002327319774 -150.95441600530168 34.206871193353784 -150.95441600530168 curveto
34.45749052211473 -150.95441600530168 34.661451985913445 -150.88109652082375 34.818755600125 -150.73445755842314 curveto
34.97605922136858 -150.58781858946725 35.054711024958344 -150.39807665740386 35.054711024958344 -150.1652317595314 curveto
35.054711024958344 -149.61066984057098 34.66633993748127 -149.33338890588163 33.88959779725019 -149.33338890588163 curveto
33.68163708383775 -149.33338890588163 lineto
33.68163708383775 -148.9787892278835 lineto
33.865602330317984 -148.97612306489103 lineto
34.59435356997749 -148.97612306489103 34.95872915722953 -148.71928268896224 34.95872915722953 -148.205601960068 curveto
34.95872915722953 -147.80212261518338 34.718774480756274 -147.60038296077798 34.23886514926339 -147.60038296077798 curveto
33.97580372616679 -147.60038296077798 33.6860806841107 -147.6741468057679 33.36969601371909 -147.82167448915274 curveto
33.36969601371909 -147.3630944544484 lineto
33.680748372110344 -147.25822537361935 33.982913506356724 -147.20579083789283 34.276191431157926 -147.20579083789283 curveto
35.083150120927236 -147.20579083789283 35.486629429738024 -147.51062214911624 35.486629429738024 -148.12028474430906 curveto
35.486629429738024 -148.58419711882402 35.212014633329744 -148.91480131900423 34.66278506506567 -149.11209737750687 curveto
35.29910931823177 -149.25962506748672 35.617271416368915 -149.60800370228992 35.617271416368915 -150.157233270554 curveto
35.617271416368915 -150.52871865857554 35.49462791506036 -150.82021913783265 35.24934092340845 -151.0317347320832 curveto
35.00405392079134 -151.24325033578927 34.66722866367 -151.34900812818682 34.23886514926339 -151.34900812818682 curveto
33.99535558869424 -151.34900812818682 33.687858125284606 -151.30634951903602 33.31637275386975 -151.2210323045484 curveto
closepath
fill
newpath
1.0 setlinewidth
10.0 setmiterlimit
0 setlinejoin
0 setlinecap
[ ] 0 setdash
newpath
37.660498331814104 -149.24176347618985 moveto
39.84461905524321 -149.24176347618985 lineto
stroke
newpath
0.0 0.0 0.0 setrgbcolor
1.0 setlinewidth
10.0 setmiterlimit
0 setlinejoin
0 setlinecap
[ ] 0 setdash
newpath
34.81742251862877 -122.85679069288716 moveto
34.81742251862877 -121.73966839904342 lineto
33.04175796564563 -121.73966839904342 lineto
33.04175796564563 -121.34241011316581 lineto
34.81742251862877 -118.91086946403576 lineto
35.31066267223519 -118.91086946403576 lineto
35.31066267223519 -121.3104161572562 lineto
35.83856294474369 -121.3104161572562 lineto
35.83856294474369 -121.73966839904342 lineto
35.31066267223519 -121.73966839904342 lineto
35.31066267223519 -122.85679069288716 lineto
closepath
33.556327423191796 -121.3104161572562 moveto
34.852082637530835 -121.3104161572562 lineto
34.852082637530835 -119.5560809082128 lineto
closepath
fill
newpath
1.0 setlinewidth
10.0 setmiterlimit
0 setlinejoin
0 setlinecap
[ ] 0 setdash
newpath
37.660498331814104 -120.89530678327645 moveto
39.84461905524321 -120.89530678327645 lineto
stroke
newpath
0.0 0.0 0.0 setrgbcolor
1.0 setlinewidth
10.0 setmiterlimit
0 setlinejoin
0 setlinecap
[ ] 0 setdash
newpath
33.425685436560904 -94.4792182662636 moveto
33.425685436560904 -94.00997357958938 lineto
33.68696941760955 -94.11484266041843 33.935811292642256 -94.16727719614494 34.17221107445171 -94.16727719614494 curveto
34.43171761345241 -94.16727719614494 34.635679076853826 -94.09084718808309 34.78409548122293 -93.93798717879277 curveto
34.93251189222675 -93.78512716266906 35.00672009109393 -93.57450028682035 35.00672009109393 -93.30610654957805 curveto
35.00672009109393 -92.7142183476107 34.598797141089406 -92.41827427308648 33.782951277551504 -92.41827427308648 curveto
33.690524291058104 -92.41827427308648 33.593653703576635 -92.42449532025431 33.492339511372585 -92.43693741403375 curveto
33.492339511372585 -90.51730005945738 lineto
35.48929559273049 -90.51730005945738 lineto
35.48929559273049 -90.97588009416174 lineto
33.9535857090694 -90.97588009416174 lineto
33.9535857090694 -92.01568366122393 lineto
34.460156692735154 -92.01568366122393 34.855637525758546 -92.13210611536466 35.14002824071729 -92.36495101323713 curveto
35.4244189683893 -92.59779592151858 35.56661431951204 -92.92040164281254 35.56661431951204 -93.33276817950272 curveto
35.56661431951204 -93.71669566185992 35.43730541052368 -94.01752771131257 35.17868760410806 -94.23526435245286 curveto
34.920069786131336 -94.45300100332673 34.56147086451854 -94.56186931903008 34.10289083664756 -94.56186931903008 curveto
33.90381732727716 -94.56186931903008 33.67808219608679 -94.53431896728685 33.425685436560904 -94.4792182662636 curveto
closepath
fill
newpath
1.0 setlinewidth
10.0 setmiterlimit
0 setlinejoin
0 setlinecap
[ ] 0 setdash
newpath
37.660498331814104 -92.54885009036306 moveto
39.84461905524321 -92.54885009036306 lineto
stroke
newpath
0.0 0.0 0.0 setrgbcolor
1.0 setlinewidth
10.0 setmiterlimit
0 setlinejoin
0 setlinecap
[ ] 0 setdash
newpath
33.70030022478502 -64.02470486850811 moveto
33.95091955354597 -63.69943297373326 34.266415505853544 -63.53679704088662 34.64678808711086 -63.53679704088662 curveto
34.99161184441317 -63.53679704088662 35.27378075411041 -63.650997692467406 35.49329483721919 -63.87939898541865 curveto
35.712808930141016 -64.10780028858022 35.822565966788886 -64.40063385576966 35.822565966788886 -64.75789969143658 curveto
35.822565966788886 -65.16848880451303 35.69947810496835 -65.50620277526878 35.45330239233218 -65.77104162857411 curveto
35.20712666869111 -66.03588049371865 34.894741239768805 -66.16829991445171 34.51614610047997 -66.16829991445171 curveto
34.080672798732216 -66.16829991445171 33.74029266601696 -65.99322187272864 33.495005674365046 -65.64306580493569 curveto
33.24971867174794 -65.29290972148954 33.12707518140458 -64.8067793370284 33.12707518140458 -64.18467464805614 curveto
33.12707518140458 -63.50035945959539 33.26793746370462 -62.968904317849606 33.549662015710624 -62.59030917856077 curveto
33.8313865803107 -62.21171402234742 34.228200504921475 -62.022416461165264 34.74010379184722 -62.022416461165264 curveto
34.974726142176614 -62.022416461165264 35.26800406959993 -62.072184838507866 35.619937579361384 -62.17172158874343 curveto
35.619937579361384 -62.63030162344778 lineto
35.24845219133983 -62.488106259611776 34.944509617747066 -62.41700858405041 34.70810983593761 -62.41700858405041 curveto
34.0362367418125 -62.41700858405041 33.70030022478502 -62.952907361507336 33.70030022478502 -64.02470486850811 curveto
closepath
35.29466569428039 -64.87521086310514 moveto
35.29466569428039 -64.57660059904954 35.227567256970275 -64.34197826206905 35.093370388349115 -64.1713438330938 curveto
34.95917351372889 -64.0007093964906 34.77298646520519 -63.915392185816955 34.53480924142725 -63.915392185816955 curveto
34.31262898543349 -63.915392185816955 34.12155397521109 -63.99004475183086 33.9615841980468 -64.1393498771842 curveto
33.8016144137313 -64.28865500921201 33.721629528724755 -64.4681766493805 33.721629528724755 -64.67791480166257 curveto
33.721629528724755 -65.00851902258127 33.79761517627462 -65.27380223345865 33.9495864645807 -65.47376445491402 curveto
34.101557759680425 -65.6737266853084 34.302853064817114 -65.77370779156658 34.553472382374515 -65.77370779156658 curveto
34.77920752246417 -65.77370779156658 34.95917351972796 -65.69238981787286 35.093370388349115 -65.52975387775582 curveto
35.227567262969345 -65.3671179303684 35.29466569428039 -65.14893692625293 35.29466569428039 -64.87521086310514 curveto
closepath
fill
newpath
1.0 setlinewidth
10.0 setmiterlimit
0 setlinejoin
0 setlinecap
[ ] 0 setdash
newpath
37.660498331814104 -64.20239339744967 moveto
39.84461905524321 -64.20239339744967 lineto
stroke
newpath
0.0 0.0 0.0 setrgbcolor
1.0 setlinewidth
10.0 setmiterlimit
0 setlinejoin
0 setlinecap
[ ] 0 setdash
newpath
33.582989053116464 -37.676082479152065 moveto
33.63453487250701 -37.36858500485671 33.70785435468068 -37.10285743243439 33.80294749999501 -36.87889974440438 curveto
33.898040649560336 -36.65494204636268 34.0664532793526 -36.347444582079014 34.30818538706753 -35.95640734901074 curveto
35.38531523602427 -34.223401403907076 lineto
33.353699035764286 -34.223401403907076 lineto
33.353699035764286 -33.730161250300654 lineto
35.8865538786081 -33.730161250300654 lineto
35.8865538786081 -34.223401403907076 lineto
34.875189353324544 -35.71467528213714 34.309074106263985 -36.86556894151964 34.188208052406516 -37.676082479152065 curveto
closepath
fill
newpath
1.0 setlinewidth
10.0 setmiterlimit
0 setlinejoin
0 setlinecap
[ ] 0 setdash
newpath
37.660498331814104 -35.85593670453627 moveto
39.84461905524321 -35.85593670453627 lineto
stroke
newpath
0.0 0.0 0.0 setrgbcolor
1.0 setlinewidth
10.0 setmiterlimit
0 setlinejoin
0 setlinecap
[ ] 0 setdash
newpath
34.01757362088861 -7.133585702645158 moveto
33.63186869648346 -6.865191953404707 33.439016251523235 -6.56835914339519 33.439016251523235 -6.243087263161124 curveto
33.439016251523235 -5.944476999105522 33.548328937472164 -5.701856172909263 33.7669542995967 -5.515224766217586 curveto
33.98557967149455 -5.3285933511828345 34.27085911041721 -5.235277652008533 34.622792620178664 -5.235277652008533 curveto
34.948064514953515 -5.235277652008533 35.21157028402132 -5.314373823142309 35.41330994744518 -5.472566158338112 curveto
35.6150496198875 -5.630758500605663 35.7159194470902 -5.836053050072141 35.7159194470902 -6.0884498095980275 curveto
35.7159194470902 -6.4705998499072805 35.4706324444731 -6.818978474222046 34.980058461169264 -7.133585702645158 curveto
35.57550154723251 -7.42508619850896 35.87322306364576 -7.8010151786193 35.87322306364576 -8.26137264845877 curveto
35.87322306364576 -8.591976869377474 35.74835775977727 -8.861259324862742 35.49862716320413 -9.069220035176324 curveto
35.24889655546715 -9.277180754786475 34.92673519544004 -9.381161105294982 34.53214307843478 -9.381161105294982 curveto
34.14466071198167 -9.381161105294982 33.83138656835229 -9.282957432145743 33.5923206235901 -9.08655009462736 curveto
33.35325466814082 -8.890142748328884 33.23372170110326 -8.631969299644236 33.23372170110326 -8.312029745315646 curveto
33.23372170110326 -7.839230160560944 33.49500568215191 -7.446415489099779 34.01757362088861 -7.133585702645158 curveto
closepath
34.686780531997876 -6.968283597112194 moveto
35.054711035923525 -6.726551478590992 35.23867627143858 -6.457269019132832 35.23867627143858 -6.160436210394641 curveto
35.23867627143858 -6.00224386812709 35.177354520784306 -5.874712408258426 35.054711024958344 -5.777841820975603 curveto
34.93206752364979 -5.680971229362327 34.77032030276893 -5.632535937886142 34.569469360329315 -5.632535937886142 curveto
34.375728177102765 -5.632535937886142 34.2184245645201 -5.680082512668805 34.09755851066263 -5.7751756579831355 curveto
33.97669245140203 -5.870268807548461 33.916259427174865 -5.993356665118005 33.916259427174865 -6.144439232439838 curveto
33.916259427174865 -6.2919669224196895 33.970915770149325 -6.423941987884977 34.08022845121159 -6.540364436821213 curveto
34.18954113716052 -6.656786890961939 34.39172516522817 -6.799426610105439 34.686780531997876 -6.968283597112194 curveto
closepath
34.3028530610826 -7.346878742042532 moveto
34.09133745737655 -7.510403410453933 33.94780902146007 -7.6530431274918 33.872267737799156 -7.774797902333512 curveto
33.79672645076128 -7.896552682618088 33.7589558106193 -8.048079611762965 33.7589558106193 -8.229378692549165 curveto
33.7589558106193 -8.455113832638816 33.83183093458525 -8.637745992974533 33.97758117600161 -8.777275187501168 curveto
34.12333142393351 -8.916804388265243 34.31529515859657 -8.98656898240984 34.553472382374515 -8.98656898240984 curveto
34.78276240656007 -8.98656898240984 34.96983817185674 -8.927024673803515 35.11469969228885 -8.80793606191454 curveto
35.259561219196776 -8.68884744470189 35.331991976174926 -8.534209991853915 35.331991976174926 -8.344023701225254 curveto
35.331991976174926 -8.191163685101552 35.28711156446419 -8.061854782946563 35.19735074505534 -7.95609698582128 curveto
35.10758992163386 -7.850339183968255 34.93384496545937 -7.721030279707633 34.67611588002801 -7.568170270417307 curveto
closepath
fill
newpath
1.0 setlinewidth
10.0 setmiterlimit
0 setlinejoin
0 setlinecap
[ ] 0 setdash
newpath
37.660498331814104 -7.509480011622869 moveto
39.84461905524321 -7.509480011622869 lineto
stroke
newpath
1.0 0.0 0.0 setrgbcolor
2.0 setlinewidth
10.0 setmiterlimit
1 setlinejoin
1 setlinecap
[ ] 0 setdash
newpath
39.84461864671426 -234.28114112814993 moveto
40.73043880332245 -234.2028392537649 lineto
42.58182238529165 -233.74820847299313 lineto
44.43320596726086 -232.99850010303007 lineto
46.28458954923006 -231.99893893363543 lineto
48.135973131199265 -230.77430361712044 lineto
49.98735671316847 -229.34127433570674 lineto
51.83874029513767 -227.71216542971578 lineto
53.69012387710687 -225.89665840351398 lineto
55.54150745907607 -223.9026517649665 lineto
57.392891041045274 -221.73674426747968 lineto
59.244274623014476 -219.40463483444992 lineto
61.09565820498368 -216.91123920389464 lineto
62.94704178695288 -214.26092321771395 lineto
64.79842536892208 -211.45756947576564 lineto
66.64980895089128 -208.50469398049603 lineto
68.50119253286049 -205.40546280045868 lineto
70.35257611482969 -202.16279205142658 lineto
72.20395969679889 -198.77934789639224 lineto
74.05534327876809 -195.25759653612366 lineto
75.9067268607373 -191.59982087268313 lineto
77.7581104427065 -187.80818716350205 lineto
79.6094940246757 -183.88464504026865 lineto
81.4608776066449 -179.8311108076338 lineto
83.3122611886141 -175.64933413506125 lineto
85.1636447705833 -171.34098137442135 lineto
87.0150283525525 -166.90761889647212 lineto
88.86641193452172 -162.35072975437816 lineto
90.71779551649092 -157.6717636742666 lineto
92.56917909846013 -152.87203707411498 lineto
94.42056268042933 -147.95286637190083 lineto
96.27194626239853 -142.9154846680082 lineto
98.12332984436773 -137.76103341346817 lineto
99.97471342633693 -132.49067905458998 lineto
101.82609700830614 -127.10547972481127 lineto
102.75178879929074 -124.37014646620828 lineto
103.67748059027534 -121.60649355756968 lineto
104.60317238125994 -118.8146376435264 lineto
105.52886417224454 -115.99470370046868 lineto
106.45455596322914 -113.14681670478681 lineto
107.38024775421374 -110.27108496935237 lineto
108.30593954519834 -107.36763347055563 lineto
109.23163133618294 -104.43657052126814 lineto
110.15732312716754 -101.4780044343615 lineto
111.08301491815214 -98.49204352270723 lineto
112.00870670913675 -95.47879609917695 lineto
112.93439850012135 -92.43837880840155 lineto
113.86009029110595 -89.3708832997339 lineto
114.78578208209055 -86.27640955428625 lineto
115.71147387307515 -83.15506588493011 lineto
116.63716566405975 -80.00694394101839 lineto
117.56285745504435 -76.83215203542265 lineto
118.48854924602895 -73.6307734857364 lineto
119.41424103701355 -70.40290827307186 lineto
120.33993282799815 -67.14864804678189 lineto
121.26562461898276 -63.868088622099044 lineto
122.19131640996736 -60.561313316616825 lineto
123.11700820095196 -57.22841794556778 lineto
124.04269999193656 -53.86948166066575 lineto
124.96839178292116 -50.48459611126359 lineto
125.89408357390576 -47.0738487808345 lineto
126.81977536489036 -43.63731465521265 lineto
127.74546715587496 -40.17508538375089 lineto
128.67115894685958 -36.687240118163075 lineto
129.59685073784416 -33.17385384428335 lineto
130.52254252882878 -29.63501196264508 lineto
131.44823431981337 -26.070791542022267 lineto
132.37392611079798 -22.481267568249066 lineto
133.29961790178257 -18.866517110099483 lineto
134.22530969276718 -15.22661723634752 lineto
135.15100148375177 -11.5616408498875 lineto
136.07669327473639 -7.871660853613747 lineto
137.00238506572097 -4.15674962968563 lineto
137.9280768567056 -0.41697952771657887 lineto
138.85376864769017 3.347579315803554 lineto
stroke
newpath
0.0 0.0 0.0 setrgbcolor
2.0 setlinewidth
10.0 setmiterlimit
1 setlinejoin
1 setlinecap
[ ] 0 setdash
newpath
129.86453350228788 -143.17828502147194 moveto
129.12867249443656 -143.17828502147194 128.5602465603977 -142.96232581264601 128.15925565230586 -142.5304074143024 curveto
127.75826472628835 -142.09848899665056 127.55776928120528 -141.4868712072592 127.55776928120528 -140.6955540428865 curveto
127.55776928120528 -139.90636977359668 127.76199737251473 -139.294218767562 128.17045353687422 -138.8591009736751 curveto
128.57890971949314 -138.42398316033695 129.15426769215514 -138.20642427311915 129.89652745819748 -138.20642427311915 curveto
130.32098061924793 -138.20642427311915 130.81795339688023 -138.2757445129892 131.3874458035851 -138.4143849865316 curveto
131.3874458035851 -139.04466591795082 lineto
130.73903494449294 -138.82070821990914 130.23886278118604 -138.70872938089997 129.8869292714246 -138.70872938089997 curveto
129.37289303115747 -138.70872938089997 128.97510152380545 -138.88256321318948 128.6935547159963 -139.23023086222653 curveto
128.41200789560102 -139.57789852680557 128.2712344979895 -140.06847251649782 128.2712344979895 -140.7019528340684 curveto
128.2712344979895 -141.30557215355225 128.42160609524606 -141.78174885121416 128.72234927631493 -142.13048296543232 curveto
129.0230924708281 -142.47921709524013 129.43368157046027 -142.6535841445544 129.95411657883477 -142.6535841445544 curveto
130.40203197491817 -142.6535841445544 130.8819413078413 -142.51601013004307 131.39384459476705 -142.24086211332047 curveto
131.39384459476705 -142.8167533196934 lineto
130.9267328245658 -143.0577744613954 130.41696246609524 -143.17828502147194 129.86453350228788 -143.17828502147194 curveto
closepath
134.1805181544937 -142.61839079305383 moveto
133.80298946350914 -142.96605845763284 133.4393248373754 -143.1398922743804 133.08952425797617 -143.1398922743804 curveto
132.80157864620827 -143.1398922743804 132.56269044783596 -143.04977596254935 132.37285964560098 -142.86954334694423 curveto
132.1830288348799 -142.6893107232821 132.08811343800548 -142.46162040499672 132.08811343800548 -142.18647238827415 curveto
132.08811343800548 -141.80681076683203 132.2475499897066 -141.5151325437356 132.56642307885411 -141.3114376941464 curveto
132.88529618225635 -141.10774283545132 133.34227651852956 -141.00589541520966 133.9373640895807 -141.00589541520966 curveto
134.08773568235586 -141.00589541520966 lineto
134.08773568235586 -140.58677459279383 lineto
134.08773568235586 -140.18365073631878 133.88084142797447 -139.98208882610228 133.4670529377095 -139.98208882610228 curveto
133.13431578633325 -139.98208882610228 132.77491701911228 -140.0844694880642 132.3888566235558 -140.2892308028345 curveto
132.3888566235558 -139.76772932150791 lineto
132.81330978460625 -139.5949619544472 133.21110129596292 -139.50857827864013 133.5822311789841 -139.50857827864013 curveto
133.9704245222564 -139.50857827864013 134.25677041882753 -139.59602842739926 134.441268895157 -139.77092871709888 curveto
134.62576737973424 -139.94582901461717 134.71801661377512 -140.21777764013487 134.71801661377512 -140.58677459279383 curveto
134.71801661377512 -142.16087722354646 lineto
134.71801661377512 -142.5213424708707 134.8289289975672 -142.70157507841878 135.050753755235 -142.70157507841878 curveto
135.07848185118303 -142.70157507841878 135.11900752863676 -142.69730921750372 135.17233078769152 -142.68877749605497 curveto
135.21712232596497 -143.03751161546967 lineto
135.0742159853098 -143.10576539011095 134.9163791378402 -143.1398922743804 134.74361177850278 -143.1398922743804 curveto
134.44926737536227 -143.1398922743804 134.26156950825697 -142.96605844209088 134.1805181544937 -142.61839079305383 curveto
closepath
134.08773568235586 -142.27605546482104 moveto
134.08773568235586 -141.37702530376112 lineto
133.87657557335245 -141.37062651257918 lineto
133.531040839231 -141.37062651257918 133.25162696473984 -141.43621412414853 133.03833392852079 -141.56738934142325 curveto
132.82504088276679 -141.698564564562 132.71839436942474 -141.87079869314434 132.71839436942474 -142.0840917293634 curveto
132.71839436942474 -142.23552979184873 132.77171763086324 -142.36350561253133 132.87836414897276 -142.46801920027866 curveto
132.98501067184975 -142.57253279269813 133.11511942499223 -142.62478958423574 133.26869041106994 -142.62478958423574 curveto
133.53104085734736 -142.62478958423574 133.8040559441845 -142.50854487429982 134.08773568235586 -142.27605546482104 curveto
closepath
136.92879896712887 -143.1398922743804 moveto
136.64085335536097 -143.1398922743804 136.29105277319658 -143.0727049649679 135.8793972132938 -142.93833035214988 curveto
135.8793972132938 -142.35923975018602 lineto
136.29105279159901 -142.56400107410985 136.6493850900633 -142.66638172691822 136.95439413185656 -142.66638172691822 curveto
137.13569322074747 -142.66638172691822 137.28606480989933 -142.6173243263948 137.40550891018202 -142.51920952973404 curveto
137.52495301580424 -142.42109472868722 137.5846750632758 -142.29845123176474 137.5846750632758 -142.1512790367736 curveto
137.5846750632758 -141.93585306056204 137.4172400223589 -141.75775337698772 137.08236995549498 -141.61697997308315 curveto
136.71443946253453 -141.4602095891261 lineto
136.17054219586183 -141.23411896062686 135.89859358683958 -140.90884707595905 135.89859358683958 -140.4843939338831 curveto
135.89859358683958 -140.18151780891242 136.00577334233097 -139.94316284382194 136.2201328437311 -139.7693290193034 curveto
136.43449235471388 -139.5954951870139 136.72830351565742 -139.50857827864013 137.10156632904076 -139.50857827864013 curveto
137.2956630006769 -139.50857827864013 137.53561766847335 -139.53523990935938 137.8214303370069 -139.58856316841414 curveto
137.95260555623628 -139.61415833314183 lineto
137.95260555623628 -140.13885921005937 lineto
137.60067203074217 -140.0343456176399 137.32125815653708 -139.98208882610228 137.1143639114046 -139.98208882610228 curveto
136.709107124472 -139.98208882610228 136.5064787491221 -140.12926102767256 136.5064787491221 -140.42360541765484 curveto
136.5064787491221 -140.61343622837592 136.66004974206498 -140.7734060042053 136.9671917142204 -140.90351475629893 curveto
137.27113429536166 -141.03149057993735 lineto
137.6145360990256 -141.17652985105008 137.85769015583392 -141.32956760489483 138.0005964901007 -141.4906038472402 curveto
138.14350283075586 -141.65164009678446 138.21495599469503 -141.85266878520872 138.21495599469503 -142.09368991613627 curveto
138.21495599469503 -142.3986989715645 138.09444542384404 -142.6493182866905 137.8534242929165 -142.84554788001202 curveto
137.61240315121447 -143.04177748210572 137.3041947108744 -143.1398922743804 136.92879896712887 -143.1398922743804 curveto
closepath
143.95467168487838 -140.7691401414786 moveto
144.10397681690617 -140.36175042408846 144.21702212448133 -139.9671583076553 144.2938076175202 -139.58536377282317 curveto
144.88249640625693 -139.58536377282317 lineto
144.76945109200733 -140.0716719171423 144.5401610728753 -140.64969604939597 144.1946263542004 -141.31943618312383 curveto
144.25861426601963 -141.47300717148994 lineto
144.28634236196766 -141.5348621547586 144.35246320491186 -141.67670202741988 144.4569767926592 -141.89852678508768 curveto
144.5209647063854 -142.03503433437027 144.59561726953882 -142.19713704304093 144.68093448402644 -142.3848349149137 curveto
144.80891031147883 -142.67704638759668 144.9134238981773 -142.9020705378043 144.99447525194057 -143.0599073846064 curveto
144.32260217783883 -143.0599073846064 lineto
144.29700701234836 -143.0065841231679 144.28207650028975 -142.97459016868854 144.2778106395654 -142.96392551687757 curveto
144.13383783797215 -142.63118837541768 lineto
144.0026626187428 -142.32404639868545 lineto
143.8970825642411 -142.07769293818149 lineto
143.8458922347857 -141.95931530131594 lineto
143.649662632692 -142.3944331146541 143.45076687629856 -142.69997538324543 143.24920495707156 -142.87594213812616 curveto
143.04764302883402 -143.0519089008732 142.79649047646922 -143.1398922743804 142.49574729540032 -143.1398922743804 curveto
142.10755395212803 -143.1398922743804 141.79667935529517 -142.9879209792807 141.5631234806353 -142.68397840266852 curveto
141.32956759553468 -142.38003581246906 141.21278966342513 -141.97531227173815 141.21278966342513 -141.46980777589897 curveto
141.21278966342513 -140.8789860391604 141.34663104963576 -140.40387580615516 141.6143138100907 -140.04447704012603 curveto
141.88199658251196 -139.68507825803053 142.23659625911162 -139.50537888304916 142.6781128440851 -139.50537888304916 curveto
142.9724572472256 -139.50537888304916 143.20707958439678 -139.59176256657955 143.38197987409643 -139.76452992591697 curveto
143.5568801716147 -139.9372972929777 143.74777743974587 -140.27216736708817 143.95467168487838 -140.7691401414786 curveto
closepath
143.63153273019134 -141.44741200676225 moveto
143.4747623462343 -141.0922790961656 lineto
143.28279860505566 -140.65289542191238 143.12762792285108 -140.35801780579945 143.00925028774952 -140.20764621526502 curveto
142.89087264735605 -140.05727461800845 142.7570312664373 -139.98208882610228 142.60772614108396 -139.98208882610228 curveto
142.3965660257875 -139.98208882610228 142.22326543555195 -140.11219758401222 142.08782435755285 -140.3724150881995 curveto
141.95238327349907 -140.63263260401936 141.88466273752687 -140.9643032785342 141.88466273752687 -141.36742711698824 curveto
141.88466273752687 -141.75775339071805 141.94811741863867 -142.07182738314188 142.075026775189 -142.30964911852612 curveto
142.20193613741264 -142.54747086454182 142.36990440527063 -142.66638172691822 142.5789315807653 -142.66638172691822 curveto
142.7602306696562 -142.66638172691822 142.92659923723963 -142.5789315781591 143.07803729295517 -142.40403128845946 curveto
143.2294753554405 -142.22913099094117 143.4139738332479 -141.9102578953576 143.63153273019134 -141.44741200676225 curveto
closepath
146.0470764013666 -143.0599073846064 moveto
149.83516078106396 -141.1658651947577 lineto
146.0470764013666 -139.27182300490904 lineto
146.0470764013666 -139.79972327741754 lineto
148.776160840456 -141.1658651947577 lineto
146.0470764013666 -142.52880771650692 lineto
closepath
151.53084044427308 -143.0599073846064 moveto
151.53084044427308 -142.5863968371442 lineto
152.47786153919742 -142.5863968371442 lineto
152.47786153919742 -138.84950278690224 lineto
151.53084044427308 -139.08625806063333 lineto
151.53084044427308 -138.5999499308073 lineto
153.11134186620762 -138.20642427311915 lineto
153.11134186620762 -142.5863968371442 lineto
154.05836296113196 -142.5863968371442 lineto
154.05836296113196 -143.0599073846064 lineto
closepath
fill
newpath
grestore
grestore
showpage

%%EOF